time,open,close,high,low,volume
1541120160000,0.23166,0.23166,0.23166,0.23166,121.11132449
1541121060000,0.22067,0.22068,0.22068,0.22067,1807.31027019
1541125560000,0.22529,0.22528,0.22529,0.22528,1512.7415324699994
1541126940000,0.22519,0.22519,0.22519,0.22519,1264.4497
1541140860000,0.22759,0.22781,0.22781,0.22759,2985.48349171
1541143200000,0.2328,0.24077,0.24077,0.2328,2527.5072519200007
1541146140000,0.23999,0.23999,0.23999,0.23999,96.97514063
1541146800000,0.23999,0.24,0.24,0.23999,6698.02485937
1541148480000,0.244,0.244,0.244,0.244,48.0
1541151420000,0.243,0.243,0.243,0.243,1000.0
1541154180000,0.244,0.244,0.244,0.244,327.16049383
1541155080000,0.24399,0.24399,0.24399,0.24399,88.81132059
1541156760000,0.23007,0.23006,0.23007,0.23006,2181.81482146
1541158440000,0.23827,0.23827,0.23827,0.23827,80.0
1541159220000,0.23771,0.23771,0.23771,0.23771,648.91513213
1541164800000,0.236,0.236,0.236,0.236,1659.14336085
1541185140000,0.23172,0.23172,0.23172,0.23172,200.0
1541190540000,0.23739,0.23739,0.23739,0.23739,125.0
1541191020000,0.23029,0.23032,0.23032,0.23029,1736.78954453
1541193480000,0.2351800000000001,0.23519,0.23519,0.2351800000000001,849.54405534
1541193720000,0.23505,0.244,0.244,0.23505,1713.38031411
1541194800000,0.244,0.244,0.244,0.244,46.85534943
1541194860000,0.2586,0.2586,0.2586,0.2586,1054.15937574
1541196720000,0.26156,0.26175,0.26175,0.26156,2987.64515158
1541197200000,0.2381,0.23588,0.2381,0.23588,2270.32008842
1541213460000,0.23158,0.23154,0.23158,0.23154,4157.52256032
1541224080000,0.23348,0.23347,0.23348,0.23347,1593.8470645700006
1541249220000,0.2311,0.2311,0.2311,0.2311,777.0
1541254740000,0.2306,0.2306,0.2306,0.2306,221.0
1541255160000,0.23846,0.23847,0.23847,0.23846,858.0031550599997
1541256240000,0.23389,0.23389,0.23389,0.23389,306.6421
1541259240000,0.22753,0.22665,0.22753,0.22665,14317.74138482
1541261160000,0.22716,0.22709,0.22716,0.22709,2366.79133058
1541266140000,0.2188,0.2188,0.2188,0.2188,833.85679458
1541282760000,0.2366,0.2366,0.2366,0.2366,832.18908099
1541312220000,0.239,0.239,0.239,0.239,776.0
1541315220000,0.233,0.232,0.233,0.232,200.0
1541315340000,0.23,0.23,0.23,0.23,100.0
1541315760000,0.23054,0.23054,0.23054,0.23054,100.0
1541332980000,0.23119,0.23212,0.23212,0.23119,23038.88064269
1541333340000,0.22692,0.22605,0.22692,0.22605,11803.3648654
1541336760000,0.22679,0.22672,0.22679,0.22672,2183.47288244
1541343480000,0.23022,0.23022,0.23022,0.23022,396.46351545
1541349360000,0.22993,0.22993,0.22993,0.22993,500.0
1541357220000,0.239,0.239,0.239,0.239,274.30609339
1541359860000,0.2298800000000001,0.22986,0.2298800000000001,0.22986,1174.57499259
1541360820000,0.22356,0.22355,0.22356,0.22355,2461.17666723
1541372640000,0.23077,0.23197,0.23197,0.23076,16817.39559789
1541372820000,0.23805,0.23805,0.23805,0.23805,121.87918654
1541375340000,0.22993,0.22993,0.22993,0.22993,399.1
1541392560000,0.2262,0.22597,0.2262,0.22597,11058.45771818
1541416800000,0.22598,0.22597,0.22598,0.22597,2126.21567442
1541422620000,0.231,0.231,0.231,0.231,500.0
1541429940000,0.2202,0.2201,0.2202,0.2201,350.0
1541440500000,0.2201,0.2201,0.2201,0.2201,50.0
1541443320000,0.22,0.22,0.22,0.22,419.9539
1541447580000,0.22,0.22,0.22,0.22,4.22791818
1541449320000,0.201,0.201,0.201,0.201,67.40750999000001
1541467860000,0.22914,0.23,0.23,0.2291300000000001,2687.62547102
1541507520000,0.2835,0.2835,0.2835,0.2835,191.33644119
1541510700000,0.23304,0.23304,0.23304,0.23304,50.0
1541510880000,0.23279,0.23279,0.23279,0.23279,81.0
1541511420000,0.23224,0.23225,0.23225,0.23224,863.58017967
1541517360000,0.21142,0.21142,0.21142,0.21142,98.87
1541525400000,0.27923000000000003,0.28,0.28,0.27923000000000003,2351.87900742
1541525520000,0.214,0.213,0.214,0.213,2350.0
1541544240000,0.2785,0.2785,0.2785,0.2785,98.55701639
1541547120000,0.225,0.2141,0.225,0.2141,2256.25812563
1541547180000,0.21307,0.21306,0.21307,0.21306,4034.55076509
1541554800000,0.21334,0.21334,0.21334,0.21334,499.0
1541561700000,0.26594,0.26595,0.26595,0.26594,1000.0
1541561880000,0.21708,0.21708,0.21708,0.21708,998.0
1541576220000,0.23055,0.23054,0.23055,0.23054,1785.45757889
1541582640000,0.23521,0.23248,0.23521,0.23247,5299.40018924
1541588880000,0.2342,0.2342,0.2342,0.2342,66.0
1541589720000,0.2403,0.24033,0.24033,0.2403,1588.62395474
1541596980000,0.24033,0.24033,0.24033,0.24033,1000.0
1541620260000,0.23909,0.23906,0.23909,0.23906,2065.56927435
1541656320000,0.23446,0.23445,0.23446,0.23445,1600.74095162
1541683320000,0.23057,0.23057,0.23057,0.23057,333.91686229
1541687040000,0.23053,0.23053,0.23053,0.23053,52.894
1541694240000,0.23451,0.2344300000000001,0.23451,0.2344300000000001,2716.5863
1541702340000,0.23055,0.23055,0.23055,0.23055,161.28540472
1541735580000,0.2365,0.2365,0.2365,0.2365,50.0
1541737260000,0.2365,0.23835,0.23835,0.2365,2145.05971472
1541752560000,0.23278,0.23278,0.23278,0.23278,1556.54102763
1541793300000,0.24349,0.24353,0.24353,0.24349,1268.28816415
1541832180000,0.24063,0.24063,0.24063,0.24063,1679.72424525
1541911320000,0.23151,0.2315,0.23151,0.2315,1164.08234915
1541911680000,0.23053,0.23053,0.23053,0.23053,287.44275612
1542028500000,0.22428,0.22428,0.22428,0.22428,777.0
1542093780000,0.22428,0.22428,0.22428,0.22428,228.80235441
1542107520000,0.22428,0.22428,0.22428,0.22428,104.41701424
1542110460000,0.22,0.22,0.22,0.22,5000.0
1542120000000,0.218,0.218,0.218,0.218,5000.0
1542127320000,0.21301,0.21301,0.21301,0.21301,999.0
1542161220000,0.21300999999999998,0.213,0.21300999999999998,0.213,2273.81872118
1542202320000,0.1966,0.1966,0.1966,0.1966,100.0
1542205860000,0.18001,0.18,0.18001,0.18,1286.80799664
1542219480000,0.135,0.135,0.135,0.135,98.35990236
1542222180000,0.22483000000000009,0.22487,0.22487,0.22483000000000009,2500.0
1542222360000,0.14201,0.14201,0.14201,0.14201,2500.0
1542222480000,0.22476,0.22476,0.22476,0.22476,1640.56687195
1542295260000,0.14,0.14,0.14,0.14,79.84
1542296100000,0.19999,0.20016,0.20016,0.19999,2000.0
1542314940000,0.2,0.20699,0.20699,0.2,200.1
1542315180000,0.20600000000000002,0.20600000000000002,0.20600000000000002,0.20600000000000002,49516.74772267
1542336840000,0.14375,0.14375,0.14375,0.14375,70.0
1542351120000,0.15001,0.14375,0.15001,0.14375,5209.56041595
1542352020000,0.14105,0.135,0.14105,0.135,15306.52061338
1542352080000,0.1211,0.11940999999999999,0.1211,0.11940999999999999,11514.64111935
1542352320000,0.11938,0.11938,0.11938,0.11938,1709.86463492
1542355500000,0.12500999999999998,0.12000999999999999,0.12500999999999998,0.12000999999999999,8152.6266748
1542355740000,0.12,0.12,0.12,0.12,7574.017516549998
1542373860000,0.163,0.163,0.163,0.163,1000.0
1542379980000,0.152,0.152,0.152,0.152,699.83292614
1542380280000,0.16303,0.16305,0.16305,0.16303,3879.26557089
1542539580000,0.1626,0.16263,0.16263,0.1626,2015.80727622
1542563580000,0.16699999999999998,0.16699999999999998,0.16699999999999998,0.16699999999999998,64.31473994
1542621660000,0.14090999999999998,0.14090999999999998,0.14090999999999998,0.14090999999999998,62.0
1542649380000,0.125,0.125,0.125,0.125,706.57265467
1542694680000,0.1204,0.12001,0.1204,0.12001,8596.0533
1542740700000,0.12,0.12,0.12,0.12,252.53776758
1542740880000,0.12,0.12,0.12,0.12,83.33333332999999
1542741000000,0.12,0.12,0.12,0.12,416.66666666
1542744540000,0.090001,0.090001,0.090001,0.090001,100.0
1542744600000,0.090001,0.090001,0.090001,0.090001,72.0
1542744900000,0.1304,0.1304,0.1304,0.1304,172.0
1542746940000,0.1304,0.1304,0.1304,0.1304,100.0
1542762360000,0.12911,0.12911,0.12911,0.12911,100.0
1542804840000,0.1304,0.1304,0.1304,0.1304,940.0
1542817380000,0.13,0.13,0.13,0.13,900.0
1542833640000,0.12465,0.12465,0.12465,0.12465,273.0
1542917460000,0.12466,0.12466,0.12466,0.12466,1500.0
1542925260000,0.15977,0.15977,0.15977,0.15977,181.44168548
1543022640000,0.15983,0.16,0.16,0.15983,4834.91558428
1543022700000,0.20699,0.20699,0.20699,0.20699,1359.00437997
1543055880000,0.15475999999999998,0.15475999999999998,0.15475999999999998,0.15475999999999998,92.0
1543106040000,0.10099999999999999,0.1,0.10099999999999999,0.1,3991.84377404
1543150740000,0.096,0.095002,0.096,0.095002,996.4303456
1543235400000,0.096001,0.095001,0.096001,0.095001,3390.80018293
1543297500000,0.080001,0.080001,0.080001,0.080001,427.38520083
1543852860000,0.12001,0.12,0.12001,0.12,1756.54341268
1543988280000,0.11111,0.1,0.11111,0.1,2383.42733
1544111460000,0.1,0.095,0.1,0.095,1308.10148753
1544190000000,0.084241,0.084241,0.084241,0.084241,110.778
1544193900000,0.085001,0.085,0.085001,0.085,4395.59985574
1544194020000,0.085,0.085,0.085,0.085,1454.25670029
1544198220000,0.084241,0.08302999999999999,0.084241,0.08302999999999999,2397.599995
1544198340000,0.08226499999999999,0.08,0.08226499999999999,0.08,186.0
1545561660000,0.11751,0.11751,0.11751,0.11751,2000.0
1545588840000,0.11816,0.11816,0.11816,0.11816,140.0
1545619980000,0.12058,0.12058,0.12058,0.12058,300.0
1545835740000,0.09404,0.09404,0.09404,0.09404,165.0
1545991980000,0.08,0.08,0.08,0.08,804.49371649
1546016340000,0.08,0.07348099999999999,0.08,0.07348099999999999,9312.76030475
1546016400000,0.0734,0.0734,0.0734,0.0734,717.96515963
1546100700000,0.113,0.113,0.113,0.113,136.0
1546164360000,0.09197,0.09197,0.09197,0.09197,514.00153
1546514400000,0.098999,0.098999,0.098999,0.098999,243.37771139
1546789140000,0.080242,0.0791,0.080242,0.0791,910.30108209
1546789440000,0.076,0.073397,0.076,0.073397,3881.59506457
1546789500000,0.07200000000000001,0.070001,0.07200000000000001,0.070001,6172.73525334
1546789980000,0.087,0.087,0.087,0.087,2799.265607860001
1546810440000,0.077944,0.077944,0.077944,0.077944,3815.82165752
1546814040000,0.07822,0.07822,0.07822,0.07822,3020.86631217
1546815240000,0.07877100000000001,0.07877100000000001,0.07877100000000001,0.07877100000000001,3000.0
1546815600000,0.07877100000000001,0.078667,0.07877100000000001,0.078667,3000.0
1546815780000,0.0773,0.0773,0.0773,0.0773,2132.3808788
1546816320000,0.078345,0.078345,0.078345,0.078345,562.99875151
1546818000000,0.11684,0.11684,0.11684,0.11684,310.0
1546961400000,0.114,0.114,0.114,0.114,748.51271224
1546967340000,0.114,0.11783,0.11783,0.114,17343.45656708
1546967400000,0.119,0.119,0.119,0.119,500.0
1546967640000,0.119,0.119,0.119,0.119,400.0
1546997160000,0.13401,0.13401,0.13401,0.13401,200.47456724
1546997220000,0.14,0.14,0.14,0.14,2000.0
1546997460000,0.15,0.15,0.15,0.15,582.4169999999998
1546997520000,0.15617,0.15617,0.15617,0.15617,428.2463
1546997580000,0.15617,0.15617,0.15617,0.15617,1.186e-05
1546997940000,0.15665,0.15665,0.15665,0.15665,434.94452901
1546999800000,0.18889,0.18889,0.18889,0.18889,110.778
1547000040000,0.19989,0.19989,0.19989,0.19989,177.19285812
1547028240000,0.1035,0.1035,0.1035,0.1035,1001.0
1547029620000,0.10148,0.099469,0.10148,0.099469,689.3336676
1547053500000,0.15,0.15,0.15,0.15,150.0
1547066940000,0.15,0.15887,0.15887,0.15,325.78410161
1547126580000,0.1052,0.105,0.1052,0.105,720.25256552
1547152080000,0.106,0.106,0.106,0.106,200.0
1547197740000,0.096885,0.096885,0.096885,0.096885,750.0
1547401320000,0.075,0.075,0.075,0.075,506.21133552
1547492640000,0.115,0.115,0.115,0.115,136.0
1547493180000,0.11487,0.11547,0.11547,0.11487,4604.60923653
1547493300000,0.11477,0.11477,0.11477,0.11477,336.0
1547493360000,0.11477,0.11547,0.11547,0.11477,1447.07440923
1547551440000,0.089001,0.089001,0.089001,0.089001,1994.35555034
1547584260000,0.079224,0.077585,0.079224,0.077585,4849.73475196
1547650740000,0.099001,0.099001,0.099001,0.099001,1000.1904375
1547655900000,0.1,0.1,0.1,0.1,3949.11058749
1547656140000,0.098,0.098,0.098,0.098,1576.20562349
1547674020000,0.081176,0.081176,0.081176,0.081176,1140.04943056
1547674380000,0.1029,0.1029,0.1029,0.1029,770.00001111
1547674680000,0.084999,0.084999,0.084999,0.084999,1641.43925524
1547675040000,0.084999,0.084999,0.084999,0.084999,630.49863922
1547675340000,0.097001,0.097001,0.097001,0.097001,5137.99134241
1547676660000,0.096989,0.096989,0.096989,0.096989,8061.016632860003
1547676720000,0.096989,0.096989,0.096989,0.096989,6398.36824622
1547676960000,0.096987,0.096987,0.096987,0.096987,2806.20137344
1547694300000,0.099799,0.099799,0.099799,0.099799,4951.00396026
1547694360000,0.099799,0.099799,0.099799,0.099799,38399.28148218
1547694420000,0.099799,0.099799,0.099799,0.099799,1725.02995773
1547695800000,0.099797,0.099797,0.099797,0.099797,5438.945891800001
1547699340000,0.099793,0.099793,0.099793,0.099793,1846.14080838
1547699400000,0.099793,0.099793,0.099793,0.099793,29828.98359819
1547700300000,0.09979,0.09979,0.09979,0.09979,10198.13980341
1547703480000,0.09799,0.09786,0.09799,0.097859,2258.26205986
1547703540000,0.09786,0.0972,0.09786,0.0972,19637.90067455
1547703600000,0.09699,0.0964,0.09699,0.0964,6852.6592091
1547703660000,0.09594,0.09594,0.09594,0.09594,270.00001111
1547703720000,0.09559,0.09559,0.09559,0.095589,20058.22127793
1547703780000,0.095114,0.094546,0.095114,0.094546,2396.91944853
1547703840000,0.09429,0.09429,0.09429,0.09429,3169.79185263
1547703960000,0.093389,0.093389,0.093389,0.093389,3158.59333235
1547704980000,0.099328,0.098997,0.099328,0.098997,272.0
1547705040000,0.097798,0.096797,0.097798,0.096797,8158.96970803
1547705820000,0.089999,0.089999,0.089999,0.089999,3355.17175424
1547706000000,0.097999,0.097999,0.097999,0.097999,1537.13709735
1547706120000,0.098499,0.098499,0.098499,0.098499,1594.68193895
1547706300000,0.098499,0.098499,0.098499,0.098499,24127.16081934
1547707800000,0.098399,0.098399,0.098399,0.098399,10738.09847291
1547707860000,0.098399,0.098399,0.098399,0.098399,8771.9190499
1547712660000,0.098348,0.098348,0.098348,0.098348,10131.66981132
1547716740000,0.099345,0.099345,0.099345,0.099345,14811.69570058
1547716800000,0.099345,0.099345,0.099345,0.099345,15168.94888284
1547717520000,0.099289,0.099289,0.099289,0.099289,42626.48270424
1547717580000,0.099289,0.099289,0.099289,0.099289,717.41799656
1547721360000,0.0985,0.098445,0.0985,0.098445,2708.8902456
1547721420000,0.098445,0.098445,0.098445,0.098445,43670.07293217
1547721480000,0.098445,0.098445,0.098445,0.098445,34333.57616778
1547722560000,0.098439,0.098439,0.098439,0.098439,4009.7805704
1547724600000,0.098,0.097979,0.098,0.097979,6989.76861802
1547725980000,0.098,0.098,0.098,0.098,136.0
1547726040000,0.098,0.098,0.098,0.098,136.0
1547726100000,0.098,0.098,0.098,0.098,374.57471683
1547738280000,0.091999,0.091999,0.091999,0.091999,5780.14492415
1547738340000,0.092,0.091999,0.092368,0.091999,18275.31525102
1547738400000,0.091999,0.091999,0.091999,0.091999,5623.35399152
1547738460000,0.091999,0.091999,0.091999,0.091999,11068.2455581
1547738580000,0.091999,0.091999,0.091999,0.091999,28692.70664861
1547738640000,0.091999,0.091999,0.091999,0.091999,21307.29335139
1547738700000,0.098,0.098,0.098,0.098,136.0
1547739180000,0.097899,0.097899,0.097899,0.097899,275.12938988
1547739240000,0.096899,0.096899,0.096899,0.096899,4324.65672497
1547739300000,0.096399,0.096399,0.096399,0.096399,4330.83305497
1547739360000,0.096399,0.096399,0.096399,0.096399,56698.65260387
1547739420000,0.096399,0.096399,0.096399,0.096399,22121.77715738
1547739480000,0.091999,0.091999,0.091999,0.091999,16807.18658637
1547739540000,0.091999,0.091999,0.091999,0.091999,21559.20646483
1547739600000,0.091999,0.091999,0.091999,0.091999,28966.47516111
1547739660000,0.091999,0.091999,0.091999,0.091999,28581.37853149
1547739720000,0.091999,0.091999,0.091999,0.091999,3102.70434546
1547739780000,0.098,0.098,0.098,0.098,560.0
1547740020000,0.096199,0.096199,0.096199,0.096199,52087.84491532
1547740080000,0.096499,0.096499,0.096499,0.096499,46305.58615865
1547740260000,0.093001,0.093001,0.093001,0.093001,967.73142571
1547740320000,0.091999,0.091999,0.091999,0.091999,6732.1411794
1547740380000,0.091999,0.091999,0.091999,0.091999,36238.73056129
1547740440000,0.091999,0.091999,0.091999,0.091999,12410.57474302
1547740500000,0.091999,0.091999,0.091999,0.091999,20323.16351655
1547740560000,0.091999,0.091999,0.091999,0.091999,35766.19364933
1547740620000,0.091999,0.091999,0.091999,0.091999,32586.38424679
1547740680000,0.091999,0.091999,0.091999,0.091999,37254.75798237
1547740740000,0.091999,0.091999,0.091999,0.091999,8688.05412125
1547740860000,0.096199,0.096199,0.096199,0.096199,270.0
1547740920000,0.098,0.098,0.098,0.098,810.0
1547741100000,0.095999,0.095999,0.095999,0.095999,34318.84080442
1547741160000,0.095999,0.095999,0.095999,0.095999,36468.83322084
1547741220000,0.095999,0.095999,0.095999,0.095999,25634.88020258
1547741700000,0.095499,0.095499,0.095499,0.095499,3778.377034000001
1547741760000,0.095499,0.095499,0.095499,0.095499,3767.92015936
1547741820000,0.095399,0.095399,0.095399,0.095399,10525.81742443
1547741880000,0.095398,0.095398,0.095398,0.095398,34590.92527864
1547741940000,0.095398,0.096298,0.096298,0.095398,24950.30519904
1547742000000,0.096298,0.096298,0.096298,0.096298,48281.93733762
1547742060000,0.096298,0.096298,0.096298,0.096298,30253.82038818
1547742120000,0.096298,0.096298,0.096298,0.096298,4175.10272647
1547742540000,0.090999,0.090999,0.090999,0.090999,12822.91735868
1547742600000,0.090999,0.090999,0.090999,0.090999,38587.48470378
1547742660000,0.090999,0.090999,0.090999,0.090999,37974.85366452
1547742720000,0.090999,0.090999,0.090999,0.090999,15312.18826008
1547742780000,0.090999,0.090999,0.090999,0.090999,48162.15235283
1547742840000,0.090999,0.090999,0.090999,0.090999,38863.08209481
1547742900000,0.090999,0.090999,0.090999,0.090999,7267.39336186
1547742960000,0.09894,0.09894,0.09894,0.09894,270.0
1547743200000,0.095187,0.095187,0.095187,0.095187,89003.32164334
1547743260000,0.095187,0.095887,0.095887,0.095187,70286.65042975
1547743320000,0.095887,0.095887,0.095887,0.095887,42710.02792691
1547743440000,0.090999,0.090999,0.090999,0.090999,41460.28970443
1547743500000,0.090999,0.090999,0.090999,0.090999,66691.32177963
1547743560000,0.090999,0.090999,0.090999,0.090999,59216.78744568
1547743620000,0.090999,0.090999,0.090999,0.090999,32631.60107026
1547743800000,0.096,0.096,0.096,0.096,540.0
1547743920000,0.095489,0.095489,0.095489,0.095489,21649.86790885
1547743980000,0.095489,0.095488,0.095489,0.095488,41966.55707005
1547744040000,0.095489,0.095479,0.095489,0.095479,7750.76360394
1547744100000,0.095479,0.0954,0.095479,0.0954,18031.98194653
1547744160000,0.095369,0.095299,0.095369,0.095299,30101.28854395
1547744220000,0.095299,0.095249,0.095299,0.095249,21656.23318429
1547744280000,0.095199,0.095199,0.095199,0.095199,57114.32444497
1547744340000,0.095199,0.095199,0.095199,0.095199,2448.08606672
1547744460000,0.08799900000000001,0.08799900000000001,0.08799900000000001,0.08799900000000001,7466.76416619
1547744520000,0.08799900000000001,0.08799900000000001,0.08799900000000001,0.08799900000000001,79960.16589045001
1547744580000,0.08799900000000001,0.08799900000000001,0.08799900000000001,0.08799900000000001,62280.52317223
1547744640000,0.08799900000000001,0.08799900000000001,0.08800000000000001,0.08799900000000001,42434.77708438
1547744700000,0.08799900000000001,0.08799900000000001,0.08799900000000001,0.08799900000000001,6806.34225941
1547744880000,0.094987,0.098145,0.098145,0.094987,600.00001112
1547745000000,0.094987,0.094987,0.094987,0.094987,28153.41768266
1547745060000,0.094987,0.094987,0.094987,0.094986,54912.28536208
1547745120000,0.094987,0.094987,0.094987,0.094987,95998.67770183
1547745180000,0.094987,0.094987,0.094987,0.094987,21307.02803738
1547745300000,0.08800000000000001,0.088102,0.088102,0.08800000000000001,18248.76558569
1547745360000,0.088102,0.088102,0.088102,0.088102,68462.85798143
1547745420000,0.088102,0.088102,0.088102,0.088102,53003.94438596
1547745480000,0.088102,0.088202,0.088202,0.088102,40191.20693145
1547745540000,0.088202,0.088202,0.088202,0.088202,21393.2251488
1547745600000,0.08820499999999999,0.08820499999999999,0.08820499999999999,0.08820499999999999,36742.33008549
1547745900000,0.094476,0.094476,0.094476,0.094476,300.0
1547745960000,0.0945,0.0945,0.0945,0.0945,300.00001111
1547746140000,0.093976,0.093976,0.093976,0.093976,33257.48871951
1547746200000,0.093876,0.093876,0.093876,0.093876,29166.08110635
1547746260000,0.093876,0.093875,0.093876,0.093875,14557.54194022
1547746320000,0.093176,0.093176,0.093176,0.093176,20858.13714264
1547746380000,0.093176,0.093376,0.093376,0.093176,45846.50763825
1547746440000,0.093376,0.093376,0.093376,0.093375,65271.79246390001
1547746500000,0.093376,0.093376,0.093376,0.093376,32733.438428400004
1547746680000,0.08830299999999999,0.08830299999999999,0.08830299999999999,0.08830299999999999,5853.94771821
1547746740000,0.08830299999999999,0.08830299999999999,0.088304,0.08830299999999999,56463.71568606
1547746800000,0.088304,0.08830299999999999,0.08831,0.08830299999999999,50646.08569306
1547746860000,0.08830299999999999,0.08830299999999999,0.08830299999999999,0.08830299999999999,52479.80821304
1547746920000,0.08830299999999999,0.08830299999999999,0.08830299999999999,0.08830299999999999,51707.18289485
1547746980000,0.08830299999999999,0.08830299999999999,0.08830299999999999,0.08830299999999999,43691.42174128
1547747040000,0.08830299999999999,0.08830299999999999,0.08830299999999999,0.08830299999999999,37467.19647533
1547747100000,0.08830299999999999,0.08830299999999999,0.08830299999999999,0.08830299999999999,34211.33085494
1547747160000,0.08830299999999999,0.08830299999999999,0.08830299999999999,0.08830299999999999,39113.66151278
1547747220000,0.08830299999999999,0.08830299999999999,0.08830299999999999,0.08830299999999999,24174.29421928
1547747340000,0.091,0.091,0.091,0.091,5000.0
1547747400000,0.093474,0.093474,0.093474,0.093474,270.0
1547747460000,0.093474,0.093474,0.093474,0.093474,270.0
1547747520000,0.093474,0.097276,0.097276,0.093474,900.00003333
1547747640000,0.093989,0.093988,0.093989,0.093988,101026.42283975
1547747700000,0.093988,0.093989,0.093989,0.0939,21455.77199375
1547747760000,0.093989,0.093989,0.093989,0.093989,134442.34266568
1547747820000,0.093989,0.093989,0.093989,0.093989,103368.50734603
1547747880000,0.093989,0.093989,0.093989,0.093989,40921.032305
1547748120000,0.08893999999999999,0.08900599999999999,0.08985399999999999,0.08893999999999999,21039.97309842
1547748180000,0.08900599999999999,0.08900599999999999,0.0891,0.08900599999999999,34864.85314234
1547748240000,0.08900599999999999,0.089007,0.089008,0.08900599999999999,25107.9878701
1547748300000,0.08910599999999999,0.08910599999999999,0.08910599999999999,0.08910599999999999,42340.07001766
1547748360000,0.089107,0.088006,0.089107,0.088006,17745.645990459998
1547748420000,0.087006,0.086006,0.087006,0.086006,29646.82887221
1547748480000,0.087,0.0851,0.087,0.085006,18256.96714196
1547748540000,0.0851,0.084006,0.0851,0.084006,36611.59865357
1547748600000,0.084006,0.08200700000000001,0.0841,0.082006,22520.97386567
1547748660000,0.080006,0.080006,0.080006,0.080006,32901.44375667
1547748720000,0.080006,0.080009,0.081585,0.080006,21732.36520285
1547748780000,0.081001,0.081001,0.081001,0.081001,680.45471791
1547748900000,0.091,0.091,0.091,0.091,11985.69429212
1547748960000,0.091,0.0934,0.0934,0.09,6476.05196319
1547749020000,0.09,0.092097,0.092097,0.09,1500.00002222
1547749080000,0.0915,0.091989,0.091989,0.0915,5500.00001111
1547749140000,0.092097,0.092989,0.092989,0.092097,11224.40312839
1547749200000,0.093489,0.093487,0.093489,0.0934,61115.19647546
1547749260000,0.093487,0.093487,0.093487,0.0934,72748.05671254
1547749320000,0.093486,0.093487,0.093487,0.093486,58173.04514830001
1547749380000,0.093487,0.093487,0.093487,0.093487,82936.40161459
1547749440000,0.093487,0.093487,0.093487,0.093486,12917.49711423
1547749560000,0.09001,0.09001,0.09001,0.09001,140.0
1547749620000,0.09001,0.09001,0.09001,0.09001,136.0
1547749680000,0.082089,0.082089,0.082089,0.082089,272.0
1547749740000,0.084655,0.084655,0.084655,0.084655,3340.95384663
1547749800000,0.084655,0.0852,0.0852,0.084655,8106.25264659
1547749860000,0.08555499999999999,0.086134,0.086134,0.08555499999999999,17043.99753744
1547749920000,0.086135,0.086734,0.086734,0.086134,18234.31882815
1547749980000,0.0869,0.087437,0.087438,0.0869,12457.51196356
1547750040000,0.0875,0.08795700000000001,0.08795700000000001,0.0875,9297.75327599
1547750100000,0.088012,0.0884,0.0884,0.088012,18106.58393457
1547750160000,0.088516,0.08900000000000001,0.08900000000000001,0.088516,13896.83915085
1547750280000,0.0929,0.0929,0.0929,0.0929,270.0
1547750400000,0.0926,0.092636,0.092636,0.0926,770.45602218
1547750460000,0.0903,0.0903,0.0903,0.0903,499.00001109
1547750520000,0.091789,0.09177,0.091789,0.09177,27110.61232069
1547750580000,0.09176,0.091789,0.091789,0.09176,64124.29551853
1547750640000,0.091699,0.091699,0.091699,0.091699,10031.41084258
1547750700000,0.08902,0.08902,0.08902,0.08902,236.0
1547750760000,0.087,0.0871,0.0871,0.087,272.0
1547750940000,0.0874,0.0875,0.0875,0.087399,2640.45958236
1547751000000,0.087699,0.0877,0.0877,0.087699,17803.96281948
1547751060000,0.0877,0.088099,0.088099,0.0877,14466.77010537
1547751120000,0.088099,0.0884,0.0884,0.088099,15969.11976183
1547751180000,0.08851,0.08851,0.08851,0.08851,500.00001111
1547751300000,0.091867,0.091867,0.091867,0.091867,140.0
1547751360000,0.09186,0.09186,0.09186,0.09186,217.08056391
1547751420000,0.091566,0.091548,0.091566,0.091548,19450.26762863
1547751480000,0.091539,0.091518,0.091539,0.091518,24756.55352876
1547751540000,0.09149,0.090201,0.09149,0.090201,1000.00002222
1547751600000,0.091349,0.091349,0.091349,0.091349,3239.87068102
1547751660000,0.085,0.085,0.085,0.085,136.0
1547751720000,0.0854,0.0854,0.0854,0.0854,500.00001111
1547751780000,0.0864,0.087779,0.087779,0.0864,10946.98344778
1547751840000,0.08800000000000001,0.0884,0.0884,0.08800000000000001,272.0
1547751900000,0.088536,0.08900000000000001,0.08900000000000001,0.088536,272.0
1547751960000,0.08900000000000001,0.08900000000000001,0.08900000000000001,0.08900000000000001,136.0
1547752020000,0.088536,0.088402,0.08900000000000001,0.088402,5232.0
1547752080000,0.088002,0.088002,0.088002,0.088002,5826.138461000001
1547752140000,0.088002,0.088003,0.088003,0.088002,6268.166603399999
1547752200000,0.090001,0.090001,0.090001,0.090001,14233.34019762
1547752260000,0.088101,0.088101,0.088101,0.088101,7787.65254492
1547752320000,0.088101,0.088101,0.088201,0.088101,28243.60660781
1547752380000,0.088101,0.088102,0.088102,0.088101,15999.672631099998
1547752440000,0.09,0.090001,0.090001,0.09,43925.89019299
1547752500000,0.088001,0.088001,0.088001,0.088001,11224.89921412
1547752560000,0.088002,0.088001,0.088021,0.088001,27897.61534679
1547752620000,0.088001,0.087002,0.088001,0.087001,16306.42005092
1547752680000,0.0871,0.090001,0.090001,0.0871,31407.24689575
1547752740000,0.090001,0.090001,0.090001,0.090001,26914.58920978
1547752980000,0.0899,0.089999,0.089999,0.0899,17135.158807519998
1547753160000,0.087101,0.087302,0.087302,0.087101,16484.37171356
1547753220000,0.087601,0.087982,0.087982,0.087601,13623.99241388
1547753280000,0.08975599999999999,0.089977,0.089977,0.08975599999999999,5226.54906751
1547753340000,0.089028,0.089028,0.089028,0.089028,190.0
1547753580000,0.09089,0.090901,0.090901,0.09089,5372.56254492
1547753640000,0.090901,0.090901,0.090901,0.090901,28117.78914333
1547753700000,0.08892,0.08798099999999999,0.08892,0.08798099999999999,272.0
1547753880000,0.088711,0.088811,0.088811,0.088711,7879.12974314
1547753940000,0.088811,0.088811,0.088811,0.088811,13486.47976414
1547754060000,0.08712,0.08712,0.08712,0.08712,136.00001111
1547754360000,0.08962300000000001,0.089423,0.08962300000000001,0.089423,20488.00001111
1547754540000,0.08931900000000001,0.08931900000000001,0.08931900000000001,0.08931900000000001,3735.12545306
1547754600000,0.08931900000000001,0.08931900000000001,0.08931900000000001,0.08931900000000001,19643.610167500006
1547754660000,0.083,0.083,0.083,0.083,136.0
1547754720000,0.087555,0.087555,0.087555,0.087555,17824.45276098
1547754780000,0.087555,0.08800000000000001,0.08800000000000001,0.087555,18676.74565531
1547755020000,0.0891,0.0891,0.0891,0.0891,1685.17040713
1547757420000,0.086012,0.086012,0.086012,0.086012,28120.49567105
1547757480000,0.086012,0.086212,0.086212,0.086012,31976.099927799998
1547757540000,0.086212,0.0865,0.0865,0.086212,39415.35284748
1547757660000,0.08900000000000001,0.0889,0.0898,0.0889,1134.0
1547757780000,0.0895,0.0895,0.0895,0.0895,6982.42979207
1547757840000,0.089301,0.089301,0.089301,0.089301,11242.98154851
1547757900000,0.089301,0.089301,0.089301,0.089301,75242.63125221
1547757960000,0.089301,0.089301,0.089301,0.089301,1846.48955143
1547758380000,0.08630299999999999,0.08630399999999999,0.08630399999999999,0.08630299999999999,18042.86683764
1547758440000,0.086403,0.086603,0.086603,0.086403,31325.67657032
1547758500000,0.086604,0.086904,0.086904,0.086604,17926.60203392
1547758620000,0.08800000000000001,0.08800000000000001,0.08800000000000001,0.08800000000000001,5000.0001111
1547758680000,0.0898,0.0898,0.0898,0.0898,544.0
1547758800000,0.08949700000000001,0.08949700000000001,0.08949700000000001,0.08949700000000001,14025.94991898
1547758860000,0.08949700000000001,0.089496,0.08949700000000001,0.089496,36941.25473663
1547758920000,0.088897,0.088897,0.088897,0.088897,9342.94391665
1547759700000,0.086312,0.086312,0.086312,0.086312,18881.29629232
1547759760000,0.086312,0.086312,0.086312,0.086312,59849.69743105
1547759820000,0.086312,0.0864,0.0864,0.086312,7081.076398310001
1547759880000,0.08641,0.0864,0.086411,0.0864,146000.0
1547760000000,0.0898,0.0897,0.0898,0.0897,272.0
1547760060000,0.088777,0.0886,0.088777,0.0886,22218.17044471
1547760120000,0.0886,0.088599,0.0886,0.087001,54499.99001111
1547760180000,0.0885,0.088399,0.0885,0.088399,1772.00003333
1547760240000,0.0883,0.088299,0.088499,0.088299,5019.60432021
1547760300000,0.088299,0.0881,0.088299,0.0881,8600.93076596
1547760360000,0.088099,0.0879,0.088099,0.0879,22998.62776314
1547760420000,0.0878,0.087799,0.0878,0.087799,20938.74931674
1547760480000,0.08777,0.087699,0.08777,0.087699,15314.48465553
1547760540000,0.088777,0.088777,0.088777,0.088777,51712.13374689
1547760600000,0.088777,0.088777,0.088777,0.088777,51150.17784965
1547760660000,0.088777,0.088777,0.088777,0.088777,40627.27608711
1547760720000,0.088777,0.088777,0.088777,0.088777,3000.0
1547760900000,0.085101,0.085101,0.085101,0.085101,4297.51199024
1547760960000,0.085801,0.085801,0.085801,0.085801,12684.73792145
1547761080000,0.08580299999999999,0.085912,0.085912,0.08580299999999999,12905.40093294
1547761140000,0.085912,0.085953,0.085953,0.085912,24215.12532656
1547761200000,0.086037,0.086278,0.086278,0.086037,41385.5705767
1547761260000,0.086378,0.086378,0.086378,0.086378,10494.56095235
1547761320000,0.08900000000000001,0.08900000000000001,0.08900000000000001,0.08900000000000001,272.0
1547761440000,0.088001,0.08800000000000001,0.088001,0.08800000000000001,6798.512702600001
1547761500000,0.08800000000000001,0.08800000000000001,0.08800000000000001,0.08800000000000001,227.00001109
1547761560000,0.08899800000000001,0.08899800000000001,0.08899800000000001,0.08899800000000001,140.00001111
1547761620000,0.08899800000000001,0.08899800000000001,0.08899800000000001,0.08899800000000001,140.00001111
1547761740000,0.08899800000000001,0.08899800000000001,0.08899800000000001,0.08899800000000001,11280.00002222
1547761920000,0.0821,0.0821,0.0821,0.0821,136.0
1547763960000,0.088777,0.088777,0.088777,0.088777,136.0
1547787840000,0.088666,0.088666,0.088666,0.088666,990.69218277
1547793780000,0.088661,0.088661,0.088661,0.088661,136.0
1547794920000,0.085151,0.085734,0.085734,0.085151,1319.98523672
1547794980000,0.085734,0.08866,0.08866,0.08567999999999999,14736.0
1547804400000,0.0886,0.0886,0.0886,0.0886,136.0
1547824080000,0.081,0.081,0.081,0.081,271.456
1547873520000,0.08859,0.0886,0.0886,0.08859,836.86192615
1547907060000,0.0831,0.0831,0.0831,0.0831,165.25795
1548012000000,0.091,0.091,0.091,0.091,290.64836839
1548012840000,0.091,0.09181,0.09181,0.091,137.0
1548172740000,0.09181,0.09181,0.09181,0.09181,206.72585513
1548217620000,0.0912,0.09181,0.09181,0.0912,1020.0
1548261780000,0.09181,0.09181,0.09181,0.09181,323.36770755
1548377340000,0.09181,0.0751,0.09181,0.0751,337.6620000000001
1548454260000,0.09099,0.09179,0.09179,0.09099,475.56259819
1549022520000,0.09181,0.09181,0.09181,0.09181,137.0
1549344900000,0.075,0.0726,0.075,0.0726,3722.5235
1549356060000,0.0726,0.07,0.0726,0.07,1519.07714435
1549356960000,0.0661,0.0661,0.0661,0.0661,798.19736524
1549544040000,0.08800000000000001,0.09181,0.09181,0.08800000000000001,1858.71956956
1549582860000,0.067,0.067,0.067,0.067,982.13686278
1550239140000,0.061,0.061,0.061,0.061,1100.0
1550330700000,0.0875,0.09,0.09,0.0875,2500.0
1550427480000,0.089999,0.089999,0.089999,0.089999,500.0
1550434560000,0.0625,0.0625,0.0625,0.0625,966.76369428
1550438040000,0.09,0.09,0.09,0.09,139.4
1550532240000,0.066,0.066,0.066,0.066,139.1212
1550746920000,0.065,0.065,0.065,0.065,500.0
1550841180000,0.065,0.063454,0.065,0.063454,3609.19200336
1550841540000,0.077139,0.077139,0.077139,0.077139,136.88219769
1550860440000,0.074999,0.075299,0.075299,0.074999,8384.674675100001
1550861640000,0.075299,0.075299,0.075299,0.075299,33.80820792
1550862780000,0.0875,0.0875,0.0875,0.0875,353.77369282
1550863140000,0.0875,0.0875,0.0875,0.0875,703.0780982000001
1550874240000,0.0875,0.0895,0.0895,0.0875,1600.0
1550905860000,0.0895,0.0895,0.0895,0.0895,219.35224536
1550938140000,0.08900000000000001,0.08900000000000001,0.08900000000000001,0.08900000000000001,1320.0
1551032880000,0.08900000000000001,0.08900000000000001,0.08900000000000001,0.08900000000000001,250.0
1551493980000,0.077,0.077,0.077,0.077,1987.0
1552277520000,0.08900000000000001,0.09181,0.09181,0.08900000000000001,12657.28593987
1552550340000,0.08,0.08,0.08,0.08,199.0
1552597440000,0.08,0.08,0.08,0.08,200.0
1552597500000,0.08,0.08,0.08,0.08,6891.42895883
1552630020000,0.091809,0.091809,0.091809,0.091809,2962.58374832
1552661760000,0.091809,0.091809,0.091809,0.091809,4428.92991362
1552707960000,0.091809,0.09273,0.09273,0.091809,7516.66591384
1552710000000,0.09273,0.09273,0.09273,0.09273,40.71903116
1553181180000,0.11998,0.11998,0.11998,0.11998,1440.0
1553619960000,0.10899,0.10899,0.10899,0.10899,152.61453092
1554189300000,0.095684,0.095684,0.095684,0.095684,191.14510475
1554189780000,0.10044,0.10044,0.10044,0.10044,191.14510475
1554235860000,0.109,0.109,0.109,0.109,379.03693668
1554254100000,0.08399,0.08399,0.08399,0.08399,647.93405454
1554254640000,0.08399,0.08399,0.08399,0.08399,500.0
1554254940000,0.098324,0.098324,0.098324,0.098324,1147.93405454
1554274260000,0.119,0.11998,0.11998,0.119,250.0
1554307320000,0.088226,0.088226,0.088226,0.088226,500.0
1554307980000,0.11998,0.11998,0.11998,0.11998,649.25
1554308160000,0.11998,0.11998,0.11998,0.11998,56.75
1554310320000,0.119,0.119,0.119,0.119,840.0
1554428100000,0.10932,0.10932,0.10932,0.10932,144.70706118
1554440160000,0.1189,0.1189,0.1189,0.1189,183.3948
1554596160000,0.11999,0.11999,0.11999,0.11999,1222.0
1554768660000,0.11999,0.1199,0.11999,0.1199,7208.35067853
1555579920000,0.1199,0.1199,0.1199,0.1199,824.65
1556180040000,0.097,0.097,0.097,0.097,67.8567
1556229360000,0.097,0.097,0.097,0.097,68.1433
1556364600000,0.093,0.090675,0.093,0.090675,1685.13568682
1556367180000,0.092948,0.092948,0.092948,0.092948,1257.13568682
1556406180000,0.090675,0.090675,0.090675,0.090675,133.7848
1556407380000,0.099939,0.099939,0.099939,0.099939,133.7848
1556517840000,0.1012,0.1012,0.1012,0.1012,574.00318605
1556632020000,0.1,0.1,0.1,0.1,499.5
1556847120000,0.10463,0.10463,0.10463,0.10463,1095.7749164000004
1556847900000,0.14881,0.14881,0.14881,0.14881,120.0
1556913900000,0.14587999999999998,0.14587999999999998,0.14587999999999998,0.14587999999999998,50.0
1556972040000,0.14301,0.14589000000000002,0.14589000000000002,0.14301,3000.0
1556972400000,0.14303,0.14303,0.14303,0.14303,750.0
1557270060000,0.08800000000000001,0.08800000000000001,0.08800000000000001,0.08800000000000001,604.54540289
1557394260000,0.12835,0.12835,0.12835,0.12835,53.02778498
1557423060000,0.0806,0.07887999999999999,0.0806,0.07887999999999999,5996.7
1557425700000,0.087073,0.087073,0.087073,0.087073,2977.7
1557556440000,0.075512,0.075512,0.075512,0.075512,2981.16496954
1557600060000,0.091255,0.091255,0.091255,0.091255,227.1287622
1557662160000,0.098181,0.098181,0.098181,0.098181,101.0
1557817740000,0.083,0.083,0.083,0.083,50.0
1557955140000,0.0981,0.0981,0.0981,0.0981,210.0
1557967500000,0.11,0.11,0.11,0.11,113.96728209
1557978660000,0.1,0.1,0.1,0.1,2000.0
1558029180000,0.1255,0.1255,0.1255,0.1255,919.77264493
1558084620000,0.119,0.119,0.119,0.119,42.0
1558268760000,0.1095,0.1095,0.1095,0.1095,1941.05105507
1558410300000,0.11291,0.11291,0.11291,0.11291,42.0
1558548240000,0.070525,0.070525,0.070525,0.070525,475.08703559
1558549380000,0.081488,0.081488,0.081488,0.081488,475.08703559
1558707600000,0.07200000000000001,0.07200000000000001,0.07200000000000001,0.07200000000000001,207.0
1558771920000,0.07200000000000001,0.07200000000000001,0.07200000000000001,0.07200000000000001,300.9
1558866060000,0.081488,0.081488,0.081488,0.081488,871.29393285
1558910340000,0.082111,0.082111,0.082111,0.082111,42.0
1558947720000,0.08422,0.08422,0.08422,0.08422,42.0
1558957560000,0.08155,0.0815,0.08155,0.0815,1225.32
1558963680000,0.1045,0.1045,0.1045,0.1045,1177.51844113
1558975140000,0.1045,0.1045,0.1045,0.1045,239.11134287
1558977720000,0.081,0.081,0.081,0.081,226.06503024
1559005020000,0.0755,0.0725,0.0755,0.0725,8822.914477670001
1559005260000,0.0725,0.0725,0.0725,0.0725,119.76
1559006400000,0.08044,0.08044,0.08044,0.08044,6112.6
1559047380000,0.097,0.097,0.097,0.097,299.4
1559047680000,0.097,0.097,0.097,0.097,2467.88672962
1559048880000,0.097,0.097,0.097,0.097,180.0
1559068080000,0.097,0.097,0.097,0.097,45.0
1559071380000,0.1045,0.1045,0.1045,0.1045,307.28220102
1559071560000,0.1045,0.1045,0.1045,0.1045,155.41005072
1559074080000,0.10449,0.10449,0.10449,0.10449,51.44672086
1559086260000,0.10389,0.10389,0.10389,0.10389,144.85152586
1559086620000,0.102,0.102,0.102,0.102,1200.0
1559200500000,0.09,0.09,0.09,0.09,131.14026277
1559519760000,0.0895,0.0895,0.0895,0.0895,147.53712301
1559612880000,0.085,0.085,0.085,0.085,110.59346564
1559663880000,0.080001,0.08,0.080001,0.08,242.0
1559745300000,0.078,0.078,0.078,0.078,241.5
1559745360000,0.078,0.078,0.078,0.078,113.5
1559809020000,0.078501,0.0785,0.078501,0.0785,1042.0
1559839200000,0.0785,0.0785,0.0785,0.0785,70.31048038
1559923440000,0.084999,0.085,0.085,0.084999,195.70644976
1559932200000,0.085,0.085,0.085,0.085,63.79355024
1560084480000,0.0725,0.0725,0.0725,0.0725,195.31503686
1560087660000,0.0725,0.0725,0.0725,0.0725,139.72
1560106920000,0.0725,0.0725,0.0725,0.0725,860.0
1560107040000,0.0725,0.0725,0.0725,0.0725,10.42263892
1560108180000,0.0725,0.0725,0.0725,0.0725,546.47128802
1560108540000,0.081288,0.081288,0.081288,0.081288,1500.82
1560120660000,0.0725,0.072036,0.0725,0.072036,5954.4494461999975
1560121440000,0.076451,0.076451,0.076451,0.076451,4272.91648881
1560173580000,0.0764,0.0764,0.0764,0.0764,1124.0
1560263940000,0.0725,0.0725,0.0725,0.0725,306.66763662
1560375120000,0.0921,0.0921,0.0921,0.0921,100.0
1560389100000,0.09,0.09,0.09,0.09,60.50345111
1560407100000,0.0725,0.0725,0.0725,0.0725,1198.8
1560415680000,0.09,0.09,0.09,0.09,272.0
1560807960000,0.075,0.079024,0.079024,0.0725,2831.42
1560808020000,0.0725,0.0725,0.0725,0.0725,797.9
1560808380000,0.081,0.081,0.081,0.081,96.55992839
1560809640000,0.08457,0.08457,0.08457,0.08457,43.08917856
1560810780000,0.07696900000000001,0.07696900000000001,0.07696900000000001,0.07696900000000001,2060.85089305
1560848280000,0.09,0.092109,0.092109,0.09,2820.91412521
1560850800000,0.077837,0.077837,0.077837,0.077837,54.71989104
1561158780000,0.0744,0.071,0.0744,0.071,2861.5
1561160040000,0.07303,0.07303,0.07303,0.07303,2325.8
1561254360000,0.078,0.078,0.078,0.078,105.03267192
1561384140000,0.078,0.078,0.078,0.078,34844.35642145
1561385100000,0.078001,0.078,0.078001,0.078,2986.9
1561404540000,0.078001,0.078,0.078001,0.078,4189.67575651
1561449600000,0.079999,0.079999,0.079999,0.079999,72.17003349
1561613460000,0.058798,0.058798,0.058798,0.058798,218.91354087
1561646160000,0.079499,0.0795,0.0795,0.079499,83.97335572
1561661880000,0.056016,0.052054,0.056016,0.052054,1646.0
1561720980000,0.073,0.074409,0.074409,0.073,400.0
1561747740000,0.074409,0.074409,0.074409,0.074409,917.36
1561748220000,0.079,0.0795,0.0795,0.079,4420.19609907
1561749720000,0.08,0.08,0.08,0.08,2054.5
1561841040000,0.10176,0.10176,0.10176,0.10176,111.0
1561897320000,0.087701,0.087701,0.087701,0.087701,78.0
1561951800000,0.10179,0.1018,0.1018,0.10179,520.5023929199998
1562330040000,0.0675,0.0675,0.0675,0.0675,200.0
1562330100000,0.1085,0.1085,0.1085,0.1085,246.195544
1562609640000,0.08,0.092499,0.092499,0.08,399.2
1562776440000,0.07,0.07,0.07,0.07,3381.85755704
1562818680000,0.085,0.085,0.085,0.085,69.7
1562939280000,0.0715,0.0715,0.0715,0.0715,2214.55029
1563221220000,0.071952,0.071952,0.071952,0.071952,1396.82
1563272460000,0.095,0.095,0.095,0.095,1000.0
1563293940000,0.068786,0.068786,0.068786,0.068786,37207.88830726
1563332340000,0.095,0.095,0.095,0.095,120.0
1563363120000,0.07169299999999999,0.07169299999999999,0.07169299999999999,0.07169299999999999,64.0
1563363240000,0.072252,0.072252,0.072252,0.072252,77.0
1563799860000,0.08226599999999999,0.08226599999999999,0.08226599999999999,0.08226599999999999,1589.7
1563800760000,0.081278,0.081278,0.081278,0.081278,920.483031
1564095300000,0.108,0.108,0.108,0.108,250.0
1564141080000,0.08199999999999999,0.08199999999999999,0.08199999999999999,0.08199999999999999,250.0
1564240620000,0.08552699999999999,0.08552699999999999,0.08552699999999999,0.08552699999999999,46.0
1564242840000,0.075,0.075,0.075,0.075,1750.0
1564329000000,0.1,0.108,0.108,0.1,1323.1538
1564329060000,0.108,0.11,0.11,0.108,4512.537923
1564334820000,0.075,0.075,0.075,0.075,2133.38
1564335660000,0.087073,0.087073,0.087073,0.087073,1599.2
1564575480000,0.08997899999999999,0.08997899999999999,0.08997899999999999,0.08997899999999999,369.834195
1564641240000,0.10999,0.11,0.11,0.10999,5447.866261050001
1564699440000,0.0855,0.0855,0.0855,0.0855,2000.0
1565081820000,0.09,0.09,0.09,0.09,268.151434
1565088420000,0.074847,0.068116,0.074847,0.068115,2451.995582
1565100480000,0.0682,0.067,0.0682,0.067,38828.80837075
1565101080000,0.067001,0.067,0.067001,0.067,36052.74323928
1565455260000,0.065001,0.065,0.065001,0.065,1492.96340621
1565596080000,0.061,0.06002,0.061,0.06002,5846.0
1565603880000,0.0645,0.0645,0.0645,0.0645,190.23625027
1565609880000,0.06,0.06,0.06,0.06,118.248767
1565715900000,0.058980999999999985,0.05898,0.058980999999999985,0.05898,746.0
1565938500000,0.050001,0.05,0.050001,0.049999,1513.41808369
1565950680000,0.065,0.065,0.065,0.065,1000.0
1565950740000,0.065,0.065,0.065,0.065,800.0
1565992200000,0.065,0.065,0.065,0.065,100.0
1565996160000,0.065,0.065,0.065,0.065,102.923013
1566045360000,0.046001,0.046,0.046001,0.046,99.8
1566074940000,0.046001,0.046,0.046001,0.046,1796.4
1566243960000,0.045346,0.045346,0.045346,0.045346,102.717166
1567109340000,0.045001,0.045,0.045001,0.045,1228.0
1567716000000,0.040439,0.049341,0.049341,0.040439,120.0
1568862720000,0.041384,0.04,0.041384,0.04,456.7775
1568863860000,0.04,0.04,0.04,0.04,125.71031386
1568877960000,0.039725,0.039725,0.039725,0.039725,1243.97802908
1568888040000,0.039997000000000005,0.039997000000000005,0.039997000000000005,0.039997000000000005,180.29344827
1568901720000,0.0395,0.0395,0.0395,0.0395,700.0
1568901780000,0.03998,0.03998,0.03998,0.03998,471.042448
1568901840000,0.039979,0.039979,0.039979,0.039979,96.18976349
1568910480000,0.039999,0.04,0.04,0.039999,1350.16141541
1569226440000,0.04,0.04,0.04,0.04,999.0
1569574500000,0.041,0.041,0.041,0.041,315.81688127
1569574560000,0.041,0.041,0.041,0.041,195.61861743
1569574620000,0.041,0.041,0.041,0.041,146.9957683
1569575040000,0.030793,0.030793,0.030793,0.030793,100.0
1569653040000,0.036808,0.036808,0.036808,0.036808,88.51864682
1570063800000,0.0498,0.050609,0.050609,0.0498,287.5779357
1570063860000,0.051307000000000005,0.052886,0.052886,0.051307000000000005,400.0
1570515780000,0.040525,0.040525,0.040525,0.040525,223.09506061
1570523460000,0.039719,0.039719,0.039719,0.039719,114.88728685
1570710180000,0.029577,0.028548,0.029577,0.028548,1298.7
1570710660000,0.032924,0.032924,0.032924,0.032924,957.84362829
1570724460000,0.043085000000000005,0.044185,0.044185,0.043085000000000005,1000.0
1570739580000,0.033672,0.033672,0.033672,0.033672,142.25222654
1570829520000,0.031477,0.03,0.031477,0.03,493.47252
1570982400000,0.032043,0.032043,0.032043,0.032043,2919.6
1571243640000,0.056468,0.056468,0.056468,0.056468,88.0
1571243700000,0.05897,0.065,0.065,0.05897,3293.88
1571243760000,0.065,0.065,0.065,0.065,2015.0
1571243880000,0.0599,0.0599,0.0599,0.0599,7730.58364494
1571243940000,0.059,0.05703200000000001,0.0599,0.05703200000000001,9699.18125573
1571244000000,0.059899,0.059899,0.059899,0.059899,429.37797493
1571244120000,0.059,0.0591,0.0599,0.059,69557.2468769
1571244180000,0.0591,0.0591,0.0591,0.0591,55527.62872662
1571244360000,0.0377,0.031349,0.037947,0.031349,379.3988224
1571244420000,0.0377,0.0377,0.0377,0.0377,1679.30321518
1571244600000,0.0377,0.0377,0.0377,0.0377,1016.67538921
1571244660000,0.0377,0.0377,0.0377,0.0377,947.96207863
1571247960000,0.032113,0.03211,0.032113,0.03211,55416.573469
1571249160000,0.055,0.055,0.055,0.055,176.0
1571249220000,0.0528,0.0528,0.0528,0.0528,152.77070545
1571249280000,0.050216,0.05,0.050216,0.05,361.78810921
1571261160000,0.0397,0.0397,0.0397,0.0397,88.0
1571312640000,0.0373,0.0372,0.0373,0.0372,788.0
1571320620000,0.0388,0.0388,0.0388,0.0388,88.0
1571482920000,0.049,0.049,0.049,0.049,56.0
1572232680000,0.029443,0.029443,0.029443,0.029443,99.9
1572303900000,0.033612,0.033612,0.033612,0.033612,70.0
1572348600000,0.032035,0.032035,0.032035,0.032035,154.81492429
1572357960000,0.03833,0.03833,0.03833,0.03833,154.81492429
1572550500000,0.08800000000000001,0.08800000000000001,0.08800000000000001,0.08800000000000001,100.0
1572810240000,0.033472,0.033472,0.033472,0.033472,60.0
1572997740000,0.086,0.086,0.086,0.086,699.3
1572997800000,0.086,0.086,0.086,0.086,1398.6
1572997920000,0.04,0.04,0.04,0.04,277.38541648
1572997980000,0.04,0.0401,0.08,0.04,9800.0
1572998040000,0.0796,0.045,0.07998999999999999,0.045,8097.9
1572998100000,0.0795,0.05,0.08,0.05,16000.0
1572998160000,0.08,0.05,0.08,0.05,8000.0
1572998220000,0.066724,0.050527,0.07,0.050527,6000.0
1572998280000,0.078981,0.0512,0.078981,0.0512,1000.0
1572998340000,0.0767,0.07,0.078279,0.07,1000.0
1572998400000,0.0517,0.055,0.065,0.0517,5000.0
1572998460000,0.0638,0.0638,0.0638,0.0638,56.0
1572998700000,0.0618,0.0618,0.0618,0.0618,60.0
1573000260000,0.034,0.034,0.034,0.034,4944.0
1573019820000,0.0598,0.0598,0.0598,0.0598,123.136052
1573021320000,0.0598,0.0598,0.0598,0.0598,196.93485862
1573027800000,0.05,0.05,0.05,0.05,120.616592
1573029420000,0.042,0.042,0.042,0.042,733.04
1573056780000,0.041,0.041,0.041,0.041,500.0
1573061940000,0.0381,0.038,0.0381,0.038,730.0
1573062000000,0.038,0.038,0.038,0.038,230.0
1573076820000,0.04,0.04,0.04,0.04,352.55676818
1573081260000,0.038056,0.0365,0.038056,0.0365,4320.99567349
1573081380000,0.037195,0.035563,0.037195,0.035563,4706.9292399800015
1573081500000,0.035,0.035,0.035,0.035,1602.64610262
1573082100000,0.035,0.035,0.035,0.035,1000.0
1573083480000,0.035,0.035,0.035,0.035,82.89473684
1573094940000,0.035,0.035,0.035,0.035,515.88954707
1573096140000,0.035,0.035,0.035,0.035,4261.4843212
1573136520000,0.0353,0.0353,0.0353,0.0353,334.03
1573159320000,0.0353,0.035,0.0353,0.035,5310.4684363000015
1573159380000,0.032502,0.032502,0.032502,0.032502,13.8960637
1573694640000,0.033218,0.032,0.033218,0.032,919.0
1573696560000,0.032,0.031985,0.032,0.031985,525.99105262
1574195280000,0.026025,0.026025,0.026025,0.026025,99.9
1574290320000,0.030411,0.030411,0.030411,0.030411,80.0
1574370540000,0.026075,0.026075,0.026075,0.026075,80.0
1574392260000,0.026215,0.025012,0.026215,0.025012,409.13369534
1574392320000,0.025012,0.025001,0.025012,0.025001,840.82125769
1574392380000,0.025,0.025,0.025,0.025,255.37218321
1574392440000,0.024999,0.025001,0.025001,0.024998,2173.2586278500007
1574448300000,0.027149,0.027149,0.027149,0.027149,2000.0
1574451600000,0.025164,0.025164,0.025164,0.025164,500.0
1574451660000,0.025105,0.024746,0.025105,0.024746,933.672431
1575418140000,0.018728,0.018728,0.018728,0.018728,281.619513
1575966840000,0.043210000000000005,0.044781,0.044781,0.018823,1300.64963948
1575966900000,0.047,0.0445,0.047,0.0205,11280.0
1575966960000,0.022,0.0245,0.0245,0.022,4445.0
1575967020000,0.042,0.025,0.042,0.025,6091.235543
1575967080000,0.039192000000000005,0.037000000000000005,0.04,0.025591,11950.989412
1575967200000,0.035162,0.0271,0.035162,0.0271,8871.119999999999
1575967740000,0.0271,0.0271,0.0271,0.0271,12.663874
1575968100000,0.0271,0.0271,0.0271,0.0271,606.21387397
1576604940000,0.0251,0.0251,0.0251,0.0251,471.29345203
1576605060000,0.021278,0.021278,0.021278,0.021278,1129.750004
1576725360000,0.024746,0.024746,0.024746,0.024746,1129.750004
1578381000000,0.033036,0.033036,0.033036,0.033036,1288.430386
1578381360000,0.033029,0.033029,0.033029,0.033029,243.66574941
1578461400000,0.036844,0.036844,0.036844,0.036844,1175.163404
1578560880000,0.0193,0.019004,0.0193,0.018859,16573.17983441
1578561300000,0.034011,0.034011,0.034011,0.034011,15000.0
1578765300000,0.033,0.033752,0.033752,0.033,1500.0
1578765360000,0.033752,0.033752,0.033752,0.033752,1500.0
1578765960000,0.033752,0.033752,0.033752,0.033752,500.0
1578766020000,0.033752,0.039,0.039,0.033752,2919.39766528
1579027320000,0.029264,0.028,0.029264,0.028,3307.3357260000002
1579032420000,0.041999,0.041999,0.041999,0.041999,254.488
1579032480000,0.0447,0.0499,0.0499,0.0447,58191.208927
1579034100000,0.047505,0.047505,0.047505,0.047505,656.05193902
1579046640000,0.048085,0.048085,0.048085,0.048085,241.0
1579046700000,0.048085,0.048085,0.048085,0.048085,97.82003283
1579047420000,0.0499,0.0499,0.0499,0.0499,38000.0
1579047780000,0.0499,0.0499,0.0499,0.0499,1176.0
1579096260000,0.049,0.049,0.049,0.049,1677.666631
1579097580000,0.049,0.049,0.049,0.049,5150.0
1579099320000,0.049,0.049,0.049,0.049,1220.753369
1579111620000,0.0499,0.0499,0.0499,0.0499,43802.111573
1579125120000,0.0499,0.0499,0.0499,0.0499,264.0
1579129800000,0.0499,0.0499,0.0499,0.0499,224.0
1579388520000,0.0498,0.0499,0.0499,0.0498,11867.21913958
1579388700000,0.0499,0.0499,0.0499,0.0499,1270.20755954
1579530720000,0.0499,0.0499,0.0499,0.0499,649.77787252
1579615680000,0.0327,0.0327,0.0327,0.0327,5000.0
1579615740000,0.03,0.029231,0.03,0.029231,9000.0
1579616400000,0.030231,0.030231,0.030231,0.030231,33079.0
1579616520000,0.030463,0.030463,0.030463,0.030463,25683.985074
1579617300000,0.0474,0.0474,0.0474,0.0474,304.76791759
1579688100000,0.030504000000000007,0.030504000000000007,0.030504000000000007,0.030504000000000007,910.387676
1579688160000,0.027881,0.027881,0.027881,0.027881,2070.0
1579774920000,0.033566000000000006,0.030604000000000006,0.033566000000000006,0.030604000000000006,31060.187484099995
1579781880000,0.038,0.038,0.038,0.038,266.323217
1579783020000,0.038,0.039,0.039,0.038,891.28708214
1579784880000,0.0385,0.047,0.047,0.0385,25359.45659986
1579790220000,0.046,0.046,0.046,0.046,696.4839389
1579826040000,0.033468,0.032,0.033468,0.032,1155.295078
1580067240000,0.04499,0.04499,0.04499,0.04499,176.0
1580087040000,0.04499,0.033,0.04499,0.033,732.249511
1580087100000,0.033,0.033,0.033,0.033,352.860062
1580087160000,0.04499,0.04499,0.04499,0.04499,1405.784818
1580087280000,0.03321,0.03321,0.03321,0.03321,400.0
1580089500000,0.03321,0.03321,0.03321,0.03321,1029.250198
1580130540000,0.0445,0.0445,0.0445,0.0445,176.0
1580131500000,0.044,0.044,0.044,0.044,2000.0
1580131740000,0.0439,0.0439,0.0439,0.0439,2500.0
1580131980000,0.0438,0.0438,0.0438,0.0438,750.0
1580132160000,0.043,0.043,0.043,0.043,176.0
1580132280000,0.04289,0.0429,0.0429,0.04289,1500.0
1580132460000,0.042641000000000005,0.042641000000000005,0.042641000000000005,0.042641000000000005,176.0
1580132640000,0.0423,0.0422,0.0423,0.0422,1445.54412213
1580133060000,0.042,0.042,0.042,0.042,1500.0
1580135100000,0.041,0.041,0.041,0.041,1557.96
1580139000000,0.0385,0.0385,0.0385,0.0385,200.0
1580142180000,0.0385,0.0385,0.0385,0.0385,4083.451532
1580215620000,0.04,0.04,0.04,0.04,180.0
1580550960000,0.04449,0.04449,0.04449,0.04449,3071.8519920000012
1580551020000,0.0464,0.0464,0.0464,0.0464,333.0404660000001
1580797800000,0.033,0.033,0.033,0.033,1500.0
1581195480000,0.0439,0.0439,0.0439,0.0439,200.0
1581254940000,0.034504,0.034504,0.034504,0.034504,256.6468
1581265620000,0.034504,0.0335,0.034504,0.0335,3398.3697770000012
1581295800000,0.034504,0.034504,0.034504,0.034504,909.789449
1581300660000,0.04,0.04,0.04,0.04,907.96987
1581452460000,0.04,0.04,0.04,0.04,976.92297
1581453060000,0.0439,0.0439,0.0439,0.0439,1000.0
1581453120000,0.0439,0.046,0.046,0.0439,1000.0
1581524820000,0.030306,0.030306,0.030306,0.030306,168.0
1581527520000,0.046,0.046,0.046,0.046,170.0
1581568860000,0.043,0.043,0.043,0.043,7600.0
1581568980000,0.043,0.043,0.043,0.043,20000.0
1581569040000,0.043,0.043,0.043,0.043,49984.40072821
1581682920000,0.046,0.046,0.046,0.046,1445.0
1581682980000,0.048813,0.0499,0.0499,0.048813,5121.0
1581835500000,0.0499,0.0499,0.0499,0.0499,2654.600696
1582004640000,0.0499,0.0499,0.0499,0.0499,83608.37187999999
1582005240000,0.0499,0.0499,0.0499,0.0499,57670.87424999999
1582066260000,0.0499,0.0499,0.0499,0.0499,57.80506236
1582084680000,0.045909,0.045909,0.045909,0.045909,370.12145339
1582273560000,0.055754999999999985,0.055754999999999985,0.055754999999999985,0.055754999999999985,370.12145339
1582374420000,0.0577,0.05999,0.05999,0.0577,11000.0
1582375980000,0.05999,0.05999,0.05999,0.05999,1789.0
1582376040000,0.05999,0.05999,0.05999,0.05999,1650.0
1582379700000,0.05999,0.05999,0.05999,0.05999,7638.470345999999
1582379820000,0.05999,0.05999,0.05999,0.05999,3000.0
1582380420000,0.05999,0.05999,0.05999,0.05999,8000.833472
1582380540000,0.05999,0.05999,0.05999,0.05999,667.777963
1582381620000,0.05999,0.05999,0.05999,0.05999,7500.0
1582387200000,0.05999,0.05999,0.05999,0.05999,10124.03967239
1582432500000,0.049726,0.047997000000000005,0.049726,0.047997000000000005,2651.0
1582446240000,0.06346900000000001,0.06346900000000001,0.06346900000000001,0.06346900000000001,1883.7871694000007
1582446960000,0.061982,0.061212,0.061982,0.061212,1371.3818778700004
1582447260000,0.065785,0.065785,0.065785,0.065785,928.8818688
1582476060000,0.077056,0.061683,0.077056,0.061683,323.83495851
1582495860000,0.06714500000000001,0.06714500000000001,0.06714500000000001,0.06714500000000001,177.83495851
1582729920000,0.07939299999999999,0.08,0.08,0.07939299999999999,2000.0
1583788920000,0.05,0.05,0.05,0.05,150.0
1583789460000,0.05,0.05,0.05,0.05,150.0
1583789880000,0.05,0.05,0.05,0.05,150.0
1583790180000,0.05,0.05,0.05,0.05,150.0
1583790480000,0.05,0.05,0.05,0.05,150.0
1583790780000,0.05,0.05,0.05,0.05,150.0
1583791080000,0.05,0.05,0.05,0.05,150.0
1583791500000,0.05,0.05,0.05,0.05,150.0
1583791800000,0.05,0.05,0.05,0.05,150.0
1583792460000,0.05,0.05,0.05,0.05,150.0
1583792760000,0.05,0.05,0.05,0.05,150.0
1583793240000,0.05,0.05,0.05,0.05,150.0
1583793540000,0.05,0.05,0.05,0.05,150.0
1583881320000,0.046383,0.046383,0.046383,0.046383,150.0
1583881860000,0.046417,0.046417,0.046417,0.046417,150.0
1583884260000,0.046622,0.046622,0.046622,0.046622,150.0
1583884560000,0.046622,0.046622,0.046622,0.046622,150.0
1583884860000,0.046367,0.046367,0.046367,0.046367,150.0
1583885160000,0.046367,0.046367,0.046367,0.046367,150.0
1583886420000,0.046357,0.046357,0.046357,0.046357,150.0
1583886720000,0.046357,0.046357,0.046357,0.046357,150.0
1583887020000,0.046357,0.046357,0.046357,0.046357,150.0
1583887320000,0.046357,0.046357,0.046357,0.046357,150.0
1583887620000,0.046357,0.046357,0.046357,0.046357,150.0
1583887920000,0.046219,0.046219,0.046219,0.046219,150.0
1583888400000,0.046219,0.046219,0.046219,0.046219,150.0
1583950200000,0.04512,0.04443,0.04512,0.04443,300.0
1583950980000,0.04443,0.04443,0.04443,0.04443,119.09887804
1584008340000,0.036576,0.036576,0.036576,0.036576,285.0
1584009660000,0.036594,0.036594,0.036594,0.036594,285.0
1584009720000,0.036594,0.036594,0.036594,0.036594,285.0
1584009960000,0.036594,0.035,0.036594,0.035,285.0
1584010020000,0.035,0.035,0.035,0.035,281.29962264
1584010860000,0.033117,0.033117,0.033117,0.033117,689.699637
1584013320000,0.031452,0.030235,0.031452,0.030235,689.6996369999997
1584013680000,0.030496,0.030235,0.030496,0.030235,496.08504265
1584013980000,0.030235,0.030235,0.030235,0.030235,321.11155554
1584014880000,0.028869,0.028869,0.028869,0.028869,211.404123
1584020040000,0.0284,0.0284,0.0284,0.0284,170.0
1584062220000,0.02294,0.02265,0.02294,0.02265,1814.06397079
1584066480000,0.020812,0.020812,0.020812,0.020812,120.0
1584070860000,0.026647000000000004,0.026647000000000004,0.026647000000000004,0.026647000000000004,440.97024046
1584309000000,0.018955,0.018955,0.018955,0.018955,499.5
1584449940000,0.053517,0.053517,0.053517,0.053517,250.0
1584595440000,0.051394,0.051394,0.051394,0.051394,128.05969747
1585168320000,0.019123,0.019123,0.019123,0.019123,82.0
1585168380000,0.019123,0.019123,0.019123,0.019123,522.69768485
1585233300000,0.019123,0.019123,0.019123,0.019123,1026.49881052
1585302180000,0.024017,0.024017,0.024017,0.024017,82.0
1585302420000,0.023898,0.023898,0.023898,0.023898,349.19649537
1586200080000,0.049876,0.049876,0.049876,0.049876,82.0
1586200140000,0.0216,0.0216,0.0216,0.0216,163.754
1586212800000,0.047,0.047,0.047,0.047,229.24158
1586218680000,0.02207,0.02207,0.02207,0.02207,228.797419
1586399640000,0.026993,0.026993,0.026993,0.026993,495.0
1586435460000,0.026491000000000004,0.025,0.026491000000000004,0.025,1899.71869971
1586504640000,0.025,0.025,0.025,0.025,307.37994443
1586530020000,0.024314,0.02407,0.024314,0.02407,1716.75842
1586531040000,0.023232,0.023,0.023232,0.023,1600.0
1586534760000,0.025,0.025,0.025,0.025,854.0
1586534820000,0.025,0.025,0.025,0.025,1146.0
1586583900000,0.025,0.025,0.025,0.025,1012.0
1586584020000,0.043,0.0447,0.0447,0.043,391.766316
1586586900000,0.0399,0.0399,0.0399,0.0399,1600.0
1586587140000,0.0399,0.0399,0.0399,0.0399,169.22799999999995
1586587560000,0.024,0.022234,0.024,0.022234,3166.61454364
1586954880000,0.025,0.025,0.025,0.025,2000.0
1587261000000,0.023,0.020371,0.023,0.020371,873.2387
1587992400000,0.020708,0.020708,0.020708,0.020708,307.8098
1588167840000,0.0247,0.0247,0.0247,0.0247,345.553508
1588169100000,0.025005,0.025005,0.025005,0.025005,345.553508
1588212600000,0.029978,0.02998,0.02998,0.029978,3000.0
1588212720000,0.02998,0.02998,0.02998,0.02998,221.11138513
1588226640000,0.0294,0.0294,0.0294,0.0294,1998.06123514
1588318620000,0.029345,0.026406,0.029345,0.026406,227.544
1588735680000,0.034,0.034,0.034,0.034,82.0
1588738080000,0.034,0.034,0.034,0.034,63.544
1588738200000,0.036288,0.036288,0.036288,0.036288,1033.6
1588740960000,0.0372,0.039346,0.039346,0.0372,1045.7106199999996
1588769280000,0.039346,0.039346,0.039346,0.039346,96.699617
1588782120000,0.041043,0.042,0.042,0.041043,3450.0
1588785180000,0.042,0.042,0.042,0.042,4.485391
1588785540000,0.04805,0.050289,0.050289,0.04805,2367.19216627
1588785780000,0.049818,0.051833,0.051833,0.049818,5363.96914427
1588786140000,0.053,0.053,0.053,0.053,4648.72523
1588786200000,0.0538,0.0538,0.0538,0.0538,8653.671451
1588805580000,0.0525,0.0525,0.0525,0.0525,3821.497829
1588856580000,0.053875,0.054000000000000006,0.054000000000000006,0.053875,2346.72414046
1588858380000,0.063415,0.066551,0.066551,0.063415,5594.44261067
1588858440000,0.071262,0.0747,0.0747,0.071262,1777.7252715
1588914540000,0.0485,0.0485,0.0485,0.0485,7372.16788217
1589048580000,0.050574,0.0485,0.050574,0.0485,7154.11460038
1589048640000,0.045775,0.04389,0.045775,0.04389,3427.90508786
1589048880000,0.038695,0.038695,0.038695,0.038695,5000.0
1589048940000,0.020942,0.020942,0.020942,0.020942,5433.0
1589119260000,0.0387,0.0387,0.0387,0.0387,300.0
1589195880000,0.0387,0.0387,0.0387,0.0387,92.6637048
1589251260000,0.064069,0.064069,0.064069,0.064069,696.8035269999997
1589282280000,0.062442,0.062442,0.062442,0.062442,1000.0
1589282460000,0.062442,0.062442,0.062442,0.062442,500.0
1589284920000,0.062442,0.062442,0.062442,0.062442,137.070774
1589401140000,0.062442,0.062442,0.062442,0.062442,810.249461
1589405880000,0.062442,0.064077,0.064077,0.062442,3363.782
1589407560000,0.064172,0.064172,0.064172,0.064172,3496.19193445
1589407620000,0.0651,0.0651,0.0651,0.0651,178.63006555
1589415300000,0.064124,0.064124,0.064124,0.064124,1183.39894904
1589427240000,0.067031,0.067031,0.067031,0.067031,4984.2
1589445120000,0.071612,0.07501000000000001,0.07501000000000001,0.071612,3976.53816576
1589459580000,0.078713,0.079,0.079,0.078713,500.0
1589469720000,0.079,0.079,0.079,0.079,456.0
1589489160000,0.064229,0.062,0.064229,0.062,1237.0
1589489220000,0.062451,0.062,0.062451,0.062,692.7
1589505840000,0.07603700000000001,0.079282,0.079282,0.07603700000000001,2542.96522354
1589505900000,0.08,0.08,0.08,0.08,48177.83495851
1589518380000,0.082121,0.082223,0.082223,0.082121,2500.0
1589529000000,0.08199999999999999,0.08199999999999999,0.08199999999999999,0.08199999999999999,1269.38
1589529060000,0.08199999999999999,0.082223,0.082223,0.08199999999999999,500.0
1589531040000,0.0815,0.082223,0.082223,0.0815,474.36121856
1589542500000,0.091744,0.095999,0.095999,0.091744,774.0
1589542560000,0.096,0.097,0.097,0.096,594.375
1589542620000,0.09842,0.1,0.1,0.09842,42605.40839500001
1589542740000,0.099449,0.1,0.1,0.099449,16685.291605000002
1589551380000,0.0999,0.1,0.1,0.0999,189.0
1589553060000,0.1,0.1,0.1,0.1,724.68663565
1589553240000,0.10797,0.10797,0.10797,0.10797,300.0
1589553300000,0.11,0.11,0.11,0.11,100.0
1589554560000,0.10796,0.11,0.11,0.10796,898.80888116
1589554620000,0.11558,0.12,0.12,0.11558,22422.190806
1589571780000,0.116,0.12,0.12,0.116,1200.0
1589572620000,0.078,0.07200000000000001,0.078,0.07200000000000001,1077.066148
1589616180000,0.11995,0.12,0.12,0.11995,827.156428
1589657100000,0.11,0.11,0.11,0.11,135.0
1589751060000,0.108,0.11,0.11,0.108,833.295983
1589751180000,0.11,0.11,0.11,0.11,1081.53437119
1589751720000,0.11,0.11,0.11,0.11,2635.16964581
1589982540000,0.0873,0.0873,0.0873,0.0873,849.942726
1589982600000,0.07554,0.07554,0.07554,0.07554,272.49453637
1589999340000,0.0995,0.0995,0.0995,0.0995,271.979398
1590099540000,0.08073999999999999,0.08073999999999999,0.08073999999999999,0.08073999999999999,1995.0
1590099600000,0.07511,0.07511,0.07511,0.07511,2549.95352073
1590717960000,0.079554,0.079554,0.079554,0.079554,200.0
1590719040000,0.1,0.1,0.1,0.1,199.628793
1590768660000,0.109,0.109,0.109,0.109,200.0
1590768720000,0.10001,0.1,0.10001,0.1,648.24284
1590768780000,0.11669000000000004,0.11669000000000004,0.11669000000000004,0.11669000000000004,100.0
1590853740000,0.1,0.1,0.1,0.1,251.75716
1590853860000,0.0799,0.0799,0.0799,0.0799,800.0
1591034940000,0.1,0.1,0.1,0.1,798.4
1591035600000,0.1185,0.12,0.12,0.1185,26355.063304870004
1591035660000,0.12,0.12,0.12,0.12,5453.03238
1591036560000,0.12,0.12,0.12,0.12,18.45982002
1591106580000,0.118,0.118,0.118,0.118,156.0
1591106700000,0.118,0.118,0.118,0.118,94.0
1591106820000,0.118,0.118,0.118,0.118,92.0
1591107300000,0.118,0.118,0.118,0.118,629.67428
1591112580000,0.13313,0.13313,0.13313,0.13313,125.0
1591572060000,0.13305,0.13305,0.13305,0.13305,211.0
1591632180000,0.13696,0.13696,0.13696,0.13696,120.0
1591829160000,0.13699,0.13699,0.13699,0.13699,3650.0
1591904400000,0.090447,0.08461,0.090447,0.08461,500.7117
1592199720000,0.090952,0.090952,0.090952,0.090952,100.0
1592199840000,0.090952,0.090952,0.090952,0.090952,130.0
1592815140000,0.07554,0.07554,0.07554,0.07554,994.8618
1593168600000,0.07584,0.07584,0.07584,0.07584,1452.39063499
1593168720000,0.07584,0.07584,0.07584,0.07584,1450.28425572
1593180900000,0.07595,0.07595,0.07595,0.07595,1708.73898044
1593345240000,0.12897999999999998,0.13116,0.13116,0.12897999999999998,5512.5493
1593345300000,0.13607,0.14,0.14,0.13607,47000.0
1593387360000,0.12822999999999998,0.12822999999999998,0.12822999999999998,0.12822999999999998,390.641488
1593534420000,0.12073,0.12,0.12073,0.12,200.0
1593974820000,0.11,0.11,0.11,0.11,452.096954
1594155240000,0.11341,0.11341,0.11341,0.11341,1788.70386
1594367400000,0.0875,0.0875,0.0875,0.0875,144.77428917
1594410780000,0.1,0.1,0.1,0.1,284.31085984
1594641780000,0.1,0.1,0.1,0.1,83.0
1594643460000,0.1,0.1,0.1,0.1,100.0
1594643580000,0.1,0.1,0.1,0.1,100.0
1594659960000,0.0751,0.0751,0.0751,0.0751,6567.0
1595008860000,0.07961,0.07961,0.07961,0.07961,1260.0
1595022600000,0.080234,0.080234,0.080234,0.080234,848.0
1595351400000,0.07654,0.07654,0.07654,0.07654,120.495975
1595499840000,0.072939,0.07,0.072939,0.07,12289.14925659
1595499960000,0.065,0.062645,0.065,0.062645,11311.89274849
1595500020000,0.06263099999999999,0.05549,0.06263099999999999,0.05549,8309.8878993
1595500080000,0.05649600000000001,0.041010000000000005,0.05649600000000001,0.041010000000000005,9729.26933032
1595500140000,0.065,0.065,0.065,0.065,7359.800765000001
1595507700000,0.0661,0.0661,0.0661,0.0661,113.52736501
1595510700000,0.07053999999999999,0.07053999999999999,0.07053999999999999,0.07053999999999999,113.0
1595541600000,0.0712,0.0712,0.0712,0.0712,959.99
1595556240000,0.0712,0.0712,0.0712,0.0712,1875.59494775
1595556300000,0.0729,0.0729,0.0729,0.0729,100.0
1595618220000,0.06654,0.06654,0.06654,0.06654,85.0
1595625300000,0.094888,0.099629,0.099629,0.094888,4407.79403698
1595629020000,0.097,0.097,0.097,0.097,990.0
1595645100000,0.091568,0.091568,0.091568,0.091568,120.0
1595687100000,0.092617,0.092617,0.092617,0.092617,100.0
1595736960000,0.07303899999999999,0.07303899999999999,0.07303899999999999,0.07303899999999999,199.0
1595902440000,0.0735,0.0735,0.0735,0.0735,100.0
1595909220000,0.0735,0.0735,0.0735,0.0735,200.0
1595909280000,0.0735,0.0735,0.0735,0.0735,100.0
1595919660000,0.072632,0.072632,0.072632,0.072632,220.072892
1595952360000,0.071844,0.071844,0.071844,0.071844,119.76
1596014700000,0.091267,0.092,0.092,0.091267,1000.0
1596107400000,0.08,0.08,0.08,0.08,600.0
1596190740000,0.074399,0.07200000000000001,0.074399,0.07200000000000001,1587.1053726
1596214500000,0.089365,0.089365,0.089365,0.089365,500.0
1596214560000,0.091999,0.091999,0.091999,0.091999,102.0
1596293700000,0.074754,0.0741,0.074754,0.0741,800.0
1596293760000,0.0741,0.073,0.0741,0.073,148.0
1596295680000,0.078,0.078,0.078,0.078,3000.0
1596295740000,0.078,0.078,0.078,0.078,440.36919000000006
1596296640000,0.073,0.07,0.073,0.07,1334.2384204999996
1596349860000,0.07200000000000001,0.07200000000000001,0.07200000000000001,0.07200000000000001,600.0
1596553920000,0.065413,0.065413,0.065413,0.065413,170.0
1596553980000,0.065,0.065,0.065,0.065,107.0
1596556140000,0.065,0.065,0.065,0.065,301.0
1596576000000,0.075,0.075,0.075,0.075,853.897059
1596651720000,0.061375,0.059,0.061375,0.059,5000.0
1596707100000,0.079,0.079,0.079,0.079,350.0
1596767460000,0.06122,0.06122,0.06122,0.06122,606.710157
1597028580000,0.07,0.07,0.07,0.07,800.0
1597028700000,0.06254,0.06254,0.06254,0.06254,198.0
1597070580000,0.074999,0.075,0.075,0.074999,1000.0
1597071600000,0.075,0.075,0.075,0.075,356.832941
1597131600000,0.062626,0.062626,0.062626,0.062626,249.5
1597253520000,0.06275800000000001,0.062,0.06275800000000001,0.062,12900.933542
1597253580000,0.062,0.059111,0.062,0.059111,4436.60836621
1597336260000,0.06054,0.06054,0.06054,0.06054,4933.30164485
1597433700000,0.06154,0.06154,0.06154,0.06154,1000.189505
1597435200000,0.07454,0.07454,0.07454,0.07454,900.9946926
1597442220000,0.07454,0.07454,0.07454,0.07454,98.1163454
1597454880000,0.073456,0.073456,0.073456,0.073456,698.6
1597455060000,0.079,0.084,0.084,0.079,3414.41389412
1597455480000,0.084,0.084,0.084,0.084,1665.09821563
1597476480000,0.081826,0.084,0.084,0.081826,185.89989857
1597477380000,0.06254,0.06254,0.06254,0.06254,185.52
1597541580000,0.085259,0.092,0.092,0.085259,1951.46439217
1597602180000,0.09,0.09,0.09,0.09,518.692815
1597602600000,0.09,0.09,0.09,0.09,251.0
1597602840000,0.09,0.09,0.09,0.09,2566.89425437
1597635180000,0.09,0.09,0.09,0.09,100.34175163
1597947060000,0.071391,0.06617999999999999,0.071391,0.06617999999999999,4398.97844803
1598038980000,0.067,0.067,0.067,0.067,119.76
1598056380000,0.067,0.06617999999999999,0.067,0.06617999999999999,1500.0
1598267580000,0.08051900000000001,0.084215,0.084215,0.08051900000000001,3729.11342662
1598267640000,0.088453,0.12,0.12,0.088453,8895.739889800001
1598267700000,0.12985,0.134,0.134,0.12985,1365.65947534
1598267760000,0.13947,0.14,0.14,0.13947,5000.0
1598289240000,0.069994,0.067,0.069994,0.067,10151.39600729
1598289300000,0.066853,0.06617999999999999,0.067,0.06617999999999999,6095.4655976899985
1598289360000,0.067,0.067,0.067,0.067,2893.49400055
1598366100000,0.07200000000000001,0.07200000000000001,0.07200000000000001,0.07200000000000001,410.0
1598407860000,0.069,0.0682,0.069,0.0682,987.453558
1598426880000,0.0684,0.0682,0.0684,0.0682,1064.3340006
1598445060000,0.0682,0.0682,0.0682,0.0682,1006.4336589
1598448960000,0.0671,0.0671,0.0671,0.0671,1367.4865446
1598580540000,0.0671,0.0671,0.0671,0.0671,151.9505854
1598651940000,0.08459,0.08878899999999999,0.08878899999999999,0.08459,1475.4
1598746380000,0.067,0.065407,0.067,0.065407,1472.0
1598769780000,0.065407,0.065407,0.065407,0.065407,213.4
1598800080000,0.082209,0.082209,0.082209,0.082209,712.4993544
1598800500000,0.08199999999999999,0.083798,0.083798,0.08199999999999999,2275.878571800001
1598800620000,0.08379,0.083797,0.083797,0.08379,2779.276959000001
1598838480000,0.083411,0.083411,0.083411,0.083411,593.22140635
1598838660000,0.083411,0.083411,0.083411,0.083411,816.09528779
1598838720000,0.083411,0.083411,0.083411,0.083411,90.68330586
1598895060000,0.0655,0.0655,0.0655,0.0655,2241.398299
1598948700000,0.08199999999999999,0.08199999999999999,0.08199999999999999,0.08199999999999999,791.1032299999997
1599052620000,0.06654,0.06654,0.06654,0.06654,3625.4646
1599134400000,0.0663,0.0663,0.0663,0.0663,750.0
1599135060000,0.0656,0.0656,0.0656,0.0656,750.0
1599135420000,0.0655,0.061515,0.0655,0.061515,2419.6301478
1599135720000,0.061515,0.0615,0.061515,0.0615,1535.3603093200006
1599135780000,0.0615,0.0615,0.0615,0.0615,1381.8209957999998
1599138420000,0.0615,0.06,0.0615,0.06,2087.86361924
1599227280000,0.06,0.06,0.06,0.06,1709.9766117
1599227520000,0.06,0.06,0.06,0.06,3290.0067
1599248940000,0.06,0.053688,0.06,0.053688,355.9790233
1599261180000,0.0656,0.0656,0.0656,0.0656,987.996772
1599271800000,0.053286,0.053286,0.053286,0.053286,1000.0
1599310560000,0.062917,0.065964,0.065964,0.062917,1500.0
1599346140000,0.053799,0.053,0.053799,0.053,995.3348688
1599351420000,0.064125,0.064125,0.064125,0.064125,155.32816100000005
1599406260000,0.053,0.053,0.053,0.053,1098.2108898
1599449040000,0.053303,0.053304,0.053304,0.053303,967.8164694
1599545940000,0.052271000000000005,0.051152,0.052271000000000005,0.051152,200.0
1599546000000,0.05358,0.05358,0.05358,0.05358,638.4060493100002
1599739500000,0.047198,0.04651,0.047198,0.04651,1822.92769
1600087980000,0.0567,0.0567,0.0567,0.0567,170.0
1600103100000,0.04687,0.046753,0.04687,0.046753,1945.15707897
1600270020000,0.0482,0.0482,0.0482,0.0482,1076.875046
1600727460000,0.04651,0.04651,0.04651,0.04651,3265.2453861000013
1600777260000,0.04651,0.04651,0.04651,0.04651,366.0
1600777320000,0.04651,0.04651,0.04651,0.04651,220.0
1600842780000,0.04651,0.04316,0.04651,0.04316,3854.44627228
1600843380000,0.0445,0.0445,0.0445,0.0445,4000.0
1601191680000,0.045,0.045,0.045,0.045,401.0
1601191740000,0.043,0.043,0.043,0.043,100.0
1601580300000,0.054041,0.054041,0.054041,0.054041,577.6973830000002
1601594340000,0.05494400000000002,0.055,0.055,0.05494400000000002,1079.490365
1601636100000,0.039467,0.039467,0.039467,0.039467,56.64929187
1601719800000,0.055,0.055,0.055,0.055,208.12749783
1601940180000,0.059,0.079174,0.079174,0.059,413.15299000000016
1601984100000,0.041462,0.041462,0.041462,0.041462,1350.0
1602073980000,0.0781,0.0781,0.0781,0.0781,194.428873
1602299160000,0.0778,0.0778,0.0778,0.0778,500.0
1602494160000,0.043223,0.042001,0.043223,0.042001,3678.48899
1602497700000,0.042001,0.042001,0.042001,0.042001,194.040015
1602713100000,0.042135,0.042135,0.042135,0.042135,100.0
1602956760000,0.042269,0.042,0.042269,0.042,5412.1
1602957900000,0.042135,0.042135,0.042135,0.042135,1840.0
1602958080000,0.050647000000000005,0.050647000000000005,0.050647000000000005,0.050647000000000005,1460.5968719
1602965100000,0.0401,0.0401,0.0401,0.0401,386.196
1602975960000,0.043221,0.043221,0.043221,0.043221,99.8
1602976800000,0.049999,0.049999,0.049999,0.049999,32.0
1602978660000,0.049999,0.049999,0.049999,0.049999,64.0
1603029300000,0.048,0.05,0.05,0.048,1402.80635707
1603111740000,0.0498,0.05,0.05,0.0498,6576.34600478
1603111800000,0.05,0.05,0.05,0.05,2381.42
1603179000000,0.041936,0.0402,0.041936,0.0402,2745.466789
1603251960000,0.0404,0.0404,0.0404,0.0404,95.808
1603380420000,0.05595700000000002,0.05595700000000002,0.05595700000000002,0.05595700000000002,175.0
1603814220000,0.0417,0.0417,0.0417,0.0417,1000.0
1603819380000,0.040178,0.040178,0.040178,0.040178,388.5055
1603877520000,0.0397,0.038127,0.0397,0.038127,1437.01072733
1603877640000,0.0377,0.0377,0.0377,0.0377,311.6521620000001
1603877940000,0.04,0.04,0.04,0.04,2025.74001003
1603878000000,0.039648,0.039648,0.039648,0.039648,221.03883031
1603902000000,0.0417,0.0417,0.0417,0.0417,0.990441
1604341920000,0.035304,0.035,0.035304,0.035,1855.20726917
1604341980000,0.0325,0.0325,0.0325,0.0325,300.0
1604342040000,0.02627,0.0175,0.02627,0.0175,12666.28789502
1604342100000,0.01162,0.01162,0.01162,0.01162,10487.1412844
1604342700000,0.033193,0.033193,0.033193,0.033193,988.8
1604342880000,0.032719,0.032719,0.032719,0.032719,4233.878856
1604343480000,0.032719,0.032719,0.032719,0.032719,2749.396818
1604344560000,0.032533,0.032533,0.032533,0.032533,1953.53817982
1604344620000,0.032533,0.032533,0.032533,0.032533,5098.6136778300015
1604345160000,0.0325,0.033895,0.033895,0.0325,2749.396818
1604353440000,0.033267000000000005,0.033267000000000005,0.033267000000000005,0.033267000000000005,629.0
1604409600000,0.0374,0.038005,0.038005,0.0374,500.0
1604443680000,0.037867000000000005,0.026497000000000003,0.037867000000000005,0.026497000000000003,70.0
1604595180000,0.036009,0.036009,0.036009,0.036009,169.40318200000004
1604619240000,0.026712,0.026712,0.026712,0.026712,1511.93298421
1604619420000,0.037076,0.037076,0.037076,0.037076,1511.93298421
1604619480000,0.037076,0.037076,0.037076,0.037076,3.55428638
1604654520000,0.038714,0.04,0.04,0.038714,3708.48390092
1604658060000,0.043119,0.043627,0.043627,0.043119,1730.08405084
1604658300000,0.043388,0.043388,0.043388,0.043388,1446.7803852
1604658360000,0.043269,0.043269,0.043269,0.043269,2251.7653416
1604664540000,0.043029000000000005,0.043029000000000005,0.043029000000000005,0.043029000000000005,245.21225632
1605114420000,0.044834,0.044834,0.044834,0.044834,245.21225632
1605266580000,0.053286,0.053286,0.053286,0.053286,464.0
1605266640000,0.053286,0.053286,0.053286,0.053286,464.0
1605266880000,0.053286,0.0554,0.0554,0.053286,1366.07024838
1605266940000,0.0592,0.062377,0.062377,0.0592,1287.8
1605267000000,0.062377,0.062377,0.062377,0.062377,32.0
1605267060000,0.062377,0.062377,0.062377,0.062377,70.0
1605306840000,0.042,0.042,0.042,0.042,6000.0
1605448620000,0.031211000000000006,0.031211000000000006,0.031211000000000006,0.031211000000000006,1272.76556067
1605899520000,0.033118,0.03257,0.033118,0.03257,10809.401323
1605907740000,0.038512,0.038562,0.038661,0.038512,3018.0864246
1605911940000,0.038362,0.038163,0.038362,0.038163,5695.658724030001
1605972720000,0.03895,0.03895,0.03895,0.03895,761.237
1605978720000,0.047973,0.047973,0.047973,0.047973,383.860692
1605984960000,0.044,0.044,0.044,0.044,380.0
1606129260000,0.04399,0.044,0.044,0.04399,4387.17229241
1606129320000,0.057004,0.057004,0.057004,0.057004,3160.888954
1606276140000,0.06,0.06,0.06,0.06,368.66126099999997
1606556700000,0.040622000000000005,0.040622000000000005,0.040622000000000005,0.040622000000000005,1418.81588627
1606556700000,0.040622000000000005,0.040622000000000005,0.040622000000000005,0.040622000000000005,1418.81588627
1606696560000,0.061,0.046393,0.061,0.046393,64.28011237999999
1606713780000,0.048594,0.048594,0.048594,0.048594,32.28011238
1606720920000,0.054000000000000006,0.054000000000000006,0.054000000000000006,0.054000000000000006,4000.0
1606721100000,0.054000000000000006,0.054000000000000006,0.054000000000000006,0.054000000000000006,1500.0
1607016420000,0.0605,0.062573,0.062573,0.0605,682.4929709999999
1607016540000,0.063,0.067885,0.067885,0.063,1191.27
1607018880000,0.04911,0.04911,0.04911,0.04911,53.39841616
1607022720000,0.049289,0.049289,0.049289,0.049289,32.917
1607077260000,0.058530999999999986,0.058530999999999986,0.058530999999999986,0.058530999999999986,500.0
1607377440000,0.047071,0.047071,0.047071,0.047071,210.578
1607377440000,0.047070999999999995,0.047070999999999995,0.047070999999999995,0.047070999999999995,210.578
1607377440000,0.047071,0.047071,0.047071,0.047071,210.578
1607377440000,0.047070999999999995,0.047070999999999995,0.047070999999999995,0.047070999999999995,210.578
1607377440000,0.047071,0.047071,0.047071,0.047071,210.578
1607377440000,0.047070999999999995,0.047070999999999995,0.047070999999999995,0.047070999999999995,210.578
1607377440000,0.047071,0.047071,0.047071,0.047071,210.578
