time,open,close,high,low,volume
1543331760000,1.14075957,1.14075957,1.14075957,1.14075957,22.0
1543430880000,1.14909835,1.14909835,1.14909835,1.14909835,35.0
1545458160000,1.149,1.149,1.149,1.149,33.87119933
1546086540000,1.149,1.149,1.149,1.149,5926.81992003
1546112880000,1.06987172,1.05,1.06987172,1.05,5914.96628019
1546366320000,1.142,1.14498318,1.14498318,1.142,310.05429259
1546366440000,1.0723296999999998,1.0723296999999998,1.0723296999999998,1.0723296999999998,100.0
1546366680000,1.0712,1.0712,1.0712,1.0712,209.734184
1546871340000,1.145,1.145,1.145,1.145,10.0
1546871820000,1.145,1.0712,1.145,1.0712,29.96
1546872060000,1.145,1.0712,1.145,1.0712,79.92
1546899120000,1.0712,1.0712,1.0712,1.0712,20.03913154
1547059620000,1.14498418,1.14498418,1.14498418,1.14498418,50.0
1547617800000,1.13381998,1.13381998,1.13381998,1.13381998,10.80955641
1547643360000,1.13141783,1.1370903,1.1370903,1.13141783,33.4467392
1547797860000,1.13742558,1.15076765,1.15076765,1.13742558,1000.0
1548033660000,1.1485,1.1485,1.1485,1.1485,10.0
1548051420000,1.11751356,1.11751356,1.11751356,1.11751356,10.7879373
1548293880000,1.1485,1.1485,1.1485,1.1485,209.0
1548347100000,1.14626547,1.1236784,1.14637897,1.1236784,795.0
1548347340000,1.12368975,1.1236784,1.12368975,1.1236784,405.0
1548442980000,1.1485,1.1485,1.1485,1.1485,65.0
1548443040000,1.1291752,1.1291752,1.1291752,1.1291752,64.87
1549190760000,1.1548,1.1548,1.1548,1.1548,86.25011308
1549190880000,1.1179,1.1179,1.1179,1.1179,86.16386297
1549910760000,1.1179,1.1179,1.1179,1.1179,85.99153524
1549910820000,1.1179,1.1179,1.1179,1.1179,171.46746524
1549910880000,1.1179,1.1179,1.1179,1.1179,152.02418921999995
1549910940000,1.1175,1.1175,1.1175,1.1175,59.96085222
1550569020000,1.14190153,1.14190153,1.14190153,1.14190153,10.0
1550591220000,1.14322909,1.14322909,1.14322909,1.14322909,90.50033672
1550591280000,1.12157351,1.1175,1.12157351,1.1175,90.3
1550761980000,1.11750728,1.10026599,1.11750728,1.10026599,998.0
1551163860000,1.14695805,1.14695805,1.14695805,1.14695805,10.0
1551807480000,1.14035167,1.09530896,1.14035167,1.09530896,28.97073841
1551854280000,1.14074969,1.14074969,1.14074969,1.14074969,11.0
1551854340000,1.09569127,1.09569127,1.09569127,1.09569127,20.958
1552332900000,1.13585496,1.13596743,1.13596743,1.13585496,250.0
1553109240000,1.11005447,1.11004303,1.11005447,1.11004303,299.4
1553954580000,1.13427304,1.13427304,1.13427304,1.13427304,10.0
1553954640000,1.13427304,1.08948167,1.13427304,1.08948167,29.96
1553970660000,1.13427304,1.13427304,1.13427304,1.13427304,80.0
1554079620000,1.08857592,1.08857592,1.08857592,1.08857592,11.0
1554251940000,1.13157865,1.13157865,1.13157865,1.13157865,100.0
1554252120000,1.08689367,1.08689367,1.08689367,1.08689367,99.8
1554354240000,1.13529313,1.13529313,1.13529313,1.13529313,60.74104627
1554543540000,1.13437496,1.13437496,1.13437496,1.13437496,40.0
1554688200000,1.10523156,1.10523156,1.10523156,1.10523156,58.44591628
1554958200000,1.13901922,1.139132,1.139132,1.13901922,350.0
1554958260000,1.0995,1.0995,1.0995,1.0995,103.19787125
1554973500000,1.13921195,1.1391733999999998,1.13921195,1.1391733999999998,200.0
1554973560000,1.1391733999999998,1.1391733999999998,1.1391733999999998,1.1391733999999998,100.0
1554973620000,1.1392862,1.1392862,1.1392862,1.1392862,20308.86499988
1554974700000,1.0995,1.0995,1.0995,1.0995,96.80212875
1555186980000,1.10000792,1.10000792,1.10000792,1.10000792,84.10715805
1555260420000,1.13693218,1.137,1.137,1.13693218,299.8
1555262100000,1.1342155,1.1342155,1.1342155,1.1342155,85.51529578
1555262700000,1.1,1.1,1.1,1.1,199.2004
1555304100000,1.13,1.13,1.13,1.13,199.0011996
1555304280000,1.10001425,1.1,1.10001425,1.1,299.0011996
1555304340000,1.1398,1.1398,1.1398,1.1398,42.33485448
1555304400000,1.10001425,1.10001425,1.10001425,1.10001425,42.33485448
1556210400000,1.11982357,1.11982357,1.11982357,1.11982357,50.0
1556232000000,1.12,1.12,1.12,1.12,198.8021984
1556232060000,1.08010325,1.05,1.08010325,1.05,378.83078847
1556483520000,1.12325241,1.12559275,1.12559275,1.12325241,3064.94155422
1556483700000,1.0503,1.05,1.0503,1.05,2958.81167111
1556520120000,1.05081228,1.05081228,1.05081228,1.05081228,9.99
1556793600000,1.12153718,1.13094305,1.13094305,1.12153718,23000.0
1556793720000,1.06831568,1.05,1.06831568,1.05,22954.0
1556793780000,1.13083107,1.13083107,1.13083107,1.13083107,100.0
1556807280000,1.1292126,1.05077487,1.1292126,1.05077487,39.96
1556825520000,1.12866994,1.12866994,1.12866994,1.12866994,100.0
1556874960000,1.06720748,1.06720748,1.06720748,1.06720748,99.8
1557062640000,1.0601,1.0601,1.0601,1.0601,22.12811989
1557342360000,1.1191,1.1191,1.1191,1.1191,55.70997120000001
1557342540000,1.0601,1.06,1.0601,1.06,261.68285416000003
1557907560000,1.0501,1.0501,1.0501,1.0501,44.53946196
1557966000000,1.1099,1.05,1.120737,1.05,926.37734661
1558104840000,1.0602,1.06011338,1.0602,1.06011338,99.8999994
1558294800000,1.1154,1.1154,1.1154,1.1154,4.0
1558364760000,1.0607,1.0607,1.0607,1.0607,5.18811331
1559248260000,1.1129,1.11294048,1.11294048,1.1129,50.0
1559248320000,1.08,1.08,1.08,1.08,44.90749056
1559435040000,1.1129,1.0864,1.1129,1.0864,9.99
1560194340000,1.1129,1.1129,1.1129,1.1129,5.0
1560194400000,1.1129,1.11296437,1.11296437,1.1129,4.1000000000000005
1560790560000,1.1129,1.1129,1.1129,1.1129,20.1
1561098120000,1.1129,1.113,1.113,1.1129,91.15592112
1561098180000,1.0723,1.07224,1.0723,1.07224,99.8
1561099620000,1.1129,1.113,1.113,1.1129,34.27404312
1561196640000,1.1129,1.13,1.13,1.1129,721.98019309
1561196820000,1.0827,1.05,1.0827,1.05,336.31021205
1561283820000,1.0511,1.0511,1.0511,1.0511,10.0
1561443600000,1.0506,1.0506,1.0506,1.0506,39.9
1561529760000,1.1291,1.1291,1.1291,1.1291,4.0
1561628880000,1.1291,1.1291,1.1291,1.1291,7.47
1561628940000,1.0506,1.0506,1.0506,1.0506,7.45
1562453280000,1.1197,1.0671,1.1197,1.0671,16.518518550000003
1562534100000,1.0666,1.0666,1.0666,1.0666,44.40497335
1562534160000,1.0666,1.0666,1.0666,1.0666,44.12502665
1563099720000,1.1253,1.05,1.13,1.05,1095.43239549
1563106080000,1.11972097,1.11972097,1.11972097,1.11972097,85.501837
1563141060000,1.0622,1.0622,1.0622,1.0622,25.0
1563323760000,1.1099,1.1099,1.1099,1.1099,25.0
1563323820000,1.0593,1.0593,1.0593,1.0593,24.9
1563812760000,1.11249425,1.11249425,1.11249425,1.11249425,15.0
1563917100000,1.0593,1.0593,1.0593,1.0593,9.98
1564239720000,1.0593,1.0593,1.0593,1.0593,49.9
1565902140000,1.067,1.067,1.067,1.067,25.0
1566589920000,1.0704,1.0704,1.0704,1.0704,25.0
1566668460000,1.11504654,1.11504654,1.11504654,1.11504654,49.700738
1566668820000,1.07909941,1.07909941,1.07909941,1.07909941,49.601336
1566673140000,1.111,1.111,1.111,1.111,4.0
1566673740000,1.111,1.111,1.111,1.111,85.074685
1566728400000,1.111,1.13,1.13,1.111,707.964601
1566732900000,1.12393777,1.124,1.124,1.12393777,268.321367
1566732960000,1.0792,1.0792,1.0792,1.0792,45.18752824
1566761400000,1.1148,1.1148,1.1148,1.1148,4.0
1566793080000,1.0794,1.0501,1.0794,1.0501,706.7897399999997
1566883080000,1.0503,1.0503,1.0503,1.0503,8.000695
1567003980000,1.10816831,1.10816831,1.10816831,1.10816831,31.72141977
1567005300000,1.1081548,1.1081548,1.1081548,1.1081548,4.0
1567005780000,1.1083,1.1083,1.1083,1.1083,45.11413877
1567006020000,1.1085,1.11,1.11,1.1085,89.33181047
1567007580000,1.1102,1.1102,1.1102,1.1102,45.11413877
1567008120000,1.1106,1.1106,1.1106,1.1106,45.11413877
1567009980000,1.1106,1.1106,1.1106,1.1106,45.11413877
1567012380000,1.1109,1.1109,1.1109,1.1109,45.11413877
1567012980000,1.1111,1.1111,1.1111,1.1111,45.11413877
1567014180000,1.1113,1.1113,1.1113,1.1113,45.11413877
1567015380000,1.1113,1.1113,1.1113,1.1113,45.11413877
1567015740000,1.11135128,1.11135128,1.11135128,1.11135128,6.99
1567016580000,1.1112,1.1112,1.1112,1.1112,45.11413877
1567020780000,1.1109,1.1109,1.1109,1.1109,18.38101908
1567453620000,1.0594,1.0594,1.0594,1.0594,11.4
1567759800000,1.0712,1.0712,1.0712,1.0712,7.0929
1567772160000,1.0699,1.0699,1.0699,1.0699,9.98
1567844580000,1.1187,1.11881728,1.11881728,1.1187,147.585476
1567844640000,1.08,1.08,1.08,1.08,45.34324839
1567845600000,1.1187,1.11870596,1.11870596,1.1187,72.41336700000002
1567845660000,1.08,1.08,1.08,1.08,45.34324839
1567851180000,1.1187,1.12438354,1.12438354,1.1187,188.398171
1567851240000,1.08,1.08,1.08,1.08,45.34324839
1567854900000,1.1243,1.1243,1.1243,1.1243,45.34324839
1567855380000,1.0594,1.0594,1.0594,1.0594,488.6
1567865340000,1.09,1.09,1.09,1.09,71.2393
1567865520000,1.12315896,1.12315896,1.12315896,1.12315896,262.452023
1568064240000,1.0601,1.0601,1.0601,1.0601,4.29
1568336940000,1.1063,1.05665204,1.1063,1.05665204,403.41447702
1568415120000,1.1149,1.122,1.122,1.1149,63.0
1568415420000,1.122,1.122,1.122,1.122,14.0
1568415480000,1.06655956,1.122,1.122,1.06655956,19.0
1568415540000,1.06655956,1.06655956,1.06655956,1.06655956,5.0
1568456640000,1.122,1.122,1.122,1.122,251.46827400000004
1568456700000,1.0655,1.0655,1.0655,1.0655,31.965337
1568461740000,1.122,1.122,1.122,1.122,127.254537
1568576100000,1.11736798,1.11736798,1.11736798,1.11736798,4.0
1568631180000,1.0601,1.0601,1.0601,1.0601,11.73567162
1569742920000,1.0949,1.0949,1.0949,1.0949,11.73567162
1569743100000,1.1049,1.1049,1.1049,1.1049,116.92685992
1569793260000,1.0585,1.0585,1.0585,1.0585,4.940594
1569878760000,1.0585,1.0581,1.0585,1.0581,682.9766097900001
1569916080000,1.0581,1.058,1.0581,1.058,900.76
1569990480000,1.098,1.06333543,1.0987,1.06333543,144.233316
1570831320000,1.0899,1.0899,1.0899,1.0899,50.0
1572030120000,1.11849488,1.0702,1.11849488,1.0702,55.944
1572092880000,1.1184,1.1184,1.1184,1.1184,21.314837
1572092940000,1.0705,1.0705,1.0705,1.0705,21.293522
1572188040000,1.1184,1.1184,1.1184,1.1184,50.7111998
1572188160000,1.0705,1.0703878,1.0705,1.0703878,50.660488
1572194100000,1.1184,1.1184,1.1184,1.1184,10.819169
1572194160000,1.0706,1.0706,1.0706,1.0706,10.80835059
1572208020000,1.0707,1.0707,1.0707,1.0707,4.0
1572966360000,1.1,1.11734194,1.11734194,1.1,1000.0
1572966420000,1.0709,1.05,1.0709,1.05,539.95561339
1573836240000,1.107,1.0511,1.107,1.0511,37.982891
1573836360000,1.107,1.107,1.107,1.107,10.0
1573836420000,1.0511,1.0511,1.0511,1.0511,6.0
1573836540000,1.109,1.109,1.109,1.109,5.720617
1573836600000,1.0512,1.0512,1.0512,1.0512,5.0
1573836960000,1.0512,1.0512,1.0512,1.0512,4.689175
1573837260000,1.109,1.0512,1.109,1.0512,18.307481
1574271660000,1.1089,1.1118,1.1118,1.1089,100.0
1575395100000,1.1089,1.12005802,1.12005802,1.1089,1100.0
1575395340000,1.052,1.05,1.052,1.05,871.18480716
1575396780000,1.1098,1.05,1.12,1.05,1356.06683594
1576077540000,1.1149,1.1202,1.1202,1.1149,95.13857542
1577651520000,1.1286,1.06,1.1286,1.06,1063.28998717
1578005400000,1.1189,1.1189,1.1189,1.1189,13.26657213
1578495720000,1.1189,1.1189,1.1189,1.1189,7.386966
1578495960000,1.1189,1.1189,1.1189,1.1189,40.634512
1578987000000,1.11,1.13,1.13,1.11,6051.29082425
1578987240000,1.065,1.05,1.065,1.05,9824.367598
1578992220000,1.0751,1.07500724,1.0751,1.07500724,57.94133091
1578992340000,1.0751,1.07501197,1.0751,1.07501197,63.24514109
1579044660000,1.1189,1.1189,1.1189,1.1189,38.476048
1579045260000,1.0772,1.0772,1.0772,1.0772,36.0
1579078200000,1.0824,1.0824,1.0824,1.0824,5.0
1579078260000,1.085,1.12983791,1.13,1.085,880.0
1579078320000,1.0824,1.075,1.0824,1.075,522.66992979
1579205640000,1.1046,1.1046,1.1046,1.1046,5.0
1579433520000,1.1046,1.13,1.13,1.1046,897.2797879999997
1579433700000,1.0781,1.075,1.0781,1.075,670.42221036
1579971600000,1.0779,1.075,1.0779,1.075,2000.0
1580492160000,1.0751,1.0751,1.0751,1.0751,48.01877800000001
1580679660000,1.0995046,1.1,1.1,1.0995046,209.0
1580680260000,1.07515478,1.07515478,1.07515478,1.07515478,208.0
1580798160000,1.09980034,1.09980034,1.09980034,1.09980034,4.0
1581102840000,1.08998763,1.08998763,1.08998763,1.08998763,103.707159
1581102900000,1.0752,1.0752,1.0752,1.0752,68.37450998
1581345600000,1.07511368,1.075,1.07511368,1.075,749.77
1581536820000,1.0751,1.075,1.0751,1.075,1080.0
1581872280000,1.08839161,1.10474618,1.10474618,1.08839161,2877.01352957
1581872400000,1.075,1.075,1.075,1.075,2869.88
1582032060000,1.1033,1.1033,1.1033,1.1033,69.22011998
1582032120000,1.0758,1.075,1.0758,1.075,998.0
1582667580000,1.08062814,1.08062814,1.08062814,1.08062814,77.55126439
1582668180000,1.08049291,1.08049291,1.08049291,1.08049291,76.01892647
1582736400000,1.08131064,1.08131064,1.08131064,1.08131064,40.0
1582747260000,1.0821355,1.0821355,1.0821355,1.0821355,3.92260314
1583090700000,1.116,1.12373304,1.12373304,1.116,858.3300351
1583091120000,1.0761,1.0759999999999998,1.0761,1.0759999999999998,659.94807324
1583091360000,1.0751,1.07501221,1.0751,1.07501221,197.326327
1583133480000,1.0998,1.0999,1.0999,1.0998,561.19550351
1583133780000,1.1274,1.12752034,1.12752034,1.1274,1200.0
1583135160000,1.0786,1.0785,1.0786,1.0785,1416.37660563
1583146920000,1.0793,1.0793,1.0793,1.0793,68.32467887
1583147460000,1.08258223,1.08258223,1.08258223,1.08258223,111.0
1583148060000,1.0827,1.0827,1.0827,1.0827,68.32467887
1583155860000,1.10109693,1.1012,1.1012,1.10109693,452.62339437
1583156040000,1.083,1.083,1.083,1.083,452.0
1583157780000,1.1086,1.1086,1.1086,1.1086,222.0
1583157840000,1.1086,1.1086,1.1086,1.1086,222.0
1583157900000,1.0853,1.0853,1.0853,1.0853,335.91365832
1583157960000,1.0853,1.0853,1.0853,1.0853,107.0
1583158440000,1.0853,1.0853,1.0853,1.0853,111.0
1583158500000,1.0853,1.0853,1.0853,1.0853,32.0
1583210940000,1.127,1.13,1.13,1.127,2344.4506411
1583211000000,1.0879,1.0771,1.0879,1.0771,1796.16637199
1583236440000,1.127,1.13,1.13,1.127,1004.312622
1583236560000,1.0801,1.08,1.0801,1.08,665.1344221899999
1583245860000,1.12639409,1.13,1.13,1.12639409,2569.57149639
1583246400000,1.0822,1.0801,1.0822,1.0801,2237.16957381
1583246700000,1.12681916,1.1288,1.1288,1.12681916,796.4
1583246820000,1.0803,1.0803,1.0803,1.0803,795.0
1583249340000,1.1258,1.1258,1.1258,1.1258,1776.310819
1583249400000,1.0804,1.0804,1.0804,1.0804,775.1953599799997
1583253480000,1.11,1.11,1.11,1.11,57.55628845
1583253600000,1.11,1.11,1.11,1.11,57.501751
1583256000000,1.12017692,1.1224,1.1224,1.12017692,1676.92176253
1583256060000,1.12215386,1.12226552,1.12226552,1.12215386,753.7410228800003
1583256120000,1.115,1.13,1.13,1.115,5346.405418
1583256180000,1.11,1.11,1.11,1.11,336.27632455
1583256240000,1.0806,1.13,1.13,1.08,6719.05992625
1583256300000,1.0801,1.08,1.0801,1.08,554.89462425
1583286420000,1.1269,1.09,1.1269,1.09,1003.61693613
1583286540000,1.1269,1.1279,1.1279,1.1269,485.31571025
1583286660000,1.08217977,1.08217977,1.08217977,1.08217977,820.9916559999997
1583287740000,1.1274,1.12740993,1.12740993,1.1274,533.0
1583293980000,1.10021598,1.10021598,1.10021598,1.10021598,57.30367589
1583294520000,1.10425593,1.10425593,1.10425593,1.10425593,532.46
1583294580000,1.0804,1.0801,1.0804,1.0801,387.32121975
1583320320000,1.1198,1.1198,1.1198,1.1198,295.17699
1583320380000,1.1198,1.1198,1.1198,1.1198,4.0
1583320440000,1.0811,1.0811,1.0811,1.0811,294.897076
1583338020000,1.1195,1.1195,1.1195,1.1195,100.0
1583338140000,1.1195,1.12,1.12,1.1195,1610.0
1583338320000,1.082,1.0818,1.082,1.0818,1550.0
1583422500000,1.1168,1.12,1.12,1.1168,2790.0
1583422860000,1.0823,1.0813,1.0823,1.0813,2440.91265168
1583452560000,1.0855,1.0855,1.0855,1.0855,293.52
1583509620000,1.11343469,1.1191,1.1191,1.11343469,1630.0
1583509680000,1.0932,1.0825,1.0932,1.0825,1068.40040955
1583516700000,1.113,1.1191,1.1191,1.113,1100.0
1583536320000,1.0833,1.0821,1.0833,1.0821,2324.42302665
1583536620000,1.0801,1.08,1.0801,1.08,611.31517759
1583589840000,1.0802,1.0802,1.0802,1.0802,100.0
1583602560000,1.0802,1.0772,1.0802,1.0772,240.95564438
1583602620000,1.0772,1.0772,1.0772,1.0772,120.47782219
1583602680000,1.0772,1.0772,1.0772,1.0772,240.95564438
1583602740000,1.0772,1.0772,1.0772,1.0772,396.51088857
1583654220000,1.113,1.117,1.117,1.113,876.6796887
1583654280000,1.117,1.1191,1.1191,1.117,1724.5272665999994
1583654340000,1.1191,1.1191,1.1191,1.1191,1000.0
1583654700000,1.1191,1.1191,1.1191,1.1191,222.0
1584014820000,1.1187,1.1199,1.1199,1.1187,1315.40497616
1584016620000,1.0773,1.0771,1.0773,1.0771,1626.22809825
1584016800000,1.0771,1.0771,1.0771,1.0771,209.29171267
1584016860000,1.0771,1.0771,1.0771,1.0771,34.61518908
1584018480000,1.118,1.118,1.118,1.118,101.248981
1584018540000,1.08126316,1.08126316,1.08126316,1.08126316,101.056682
1584078360000,1.1159,1.1159,1.1159,1.1159,231.1
1584078420000,1.07905809,1.07905809,1.07905809,1.07905809,230.6378
1584202440000,1.1049,1.1049,1.1049,1.1049,90.497738
1584202680000,1.0766,1.0766,1.0766,1.0766,90.316742
1584219480000,1.1048,1.1049,1.1049,1.1048,206.265321
1584219540000,1.0766,1.0766,1.0766,1.0766,205.85279
1584230880000,1.0767,1.0751,1.0767,1.0751,347.0
1584230940000,1.07617931,1.07617931,1.07617931,1.07617931,97.0
1584255720000,1.0751,1.075,1.0751,1.075,535.25357855
1584395580000,1.1048,1.115,1.115,1.1048,50.0
1584525240000,1.1147,1.1147,1.1147,1.1147,34.82551994
1584532200000,1.0751,1.0751,1.0751,1.0751,43.95
1584806640000,1.09,1.09,1.09,1.09,10.0
1584806700000,1.0751,1.0751,1.0751,1.0751,9.98
1584806880000,1.09,1.0918,1.0918,1.09,290.0
1584806940000,1.0751,1.075,1.0751,1.075,289.42
1584823500000,1.0751,1.075,1.0751,1.075,3590.53730027
1584929100000,1.05626889,1.05626889,1.05626889,1.05626889,2.0
1585005360000,1.085,1.085,1.085,1.085,7.266939
1585337040000,1.0964,1.0964,1.0964,1.0964,289.60202306
1585344840000,1.09998806,1.06517534,1.09998806,1.06517534,291.310421
1585653720000,1.0659999999999998,1.0659999999999998,1.0659999999999998,1.0659999999999998,16.444309
1585674540000,1.0986888,1.0986888,1.0986888,1.0986888,15.0
1585735080000,1.09431033,1.09431033,1.09431033,1.09431033,41.05984468
1585835880000,1.0848,1.0848,1.0848,1.0848,6.35952962
1586177880000,1.055,1.05,1.055,1.05,188.774393
1586183940000,1.0809,1.10154162,1.10154162,1.0809,1343.26832047
1586186460000,1.1004,1.1004,1.1004,1.1004,2.0
1586193120000,1.1019,1.1019,1.1019,1.1019,215.0
1586338560000,1.08,1.05,1.08,1.05,1327.557643
1586498340000,1.0904,1.0905,1.0905,1.0904,444.98143921
1586498640000,1.0501,1.05,1.0501,1.05,444.09147579
1586635500000,1.0956,1.0956,1.0956,1.0956,8.257010000000001
1586887980000,1.0551,1.0551,1.0551,1.0551,91.172304
1586902740000,1.099,1.099,1.099,1.099,5.0
1586902800000,1.0561,1.0561,1.0561,1.0561,4.99
1586903880000,1.099,1.0562,1.099,1.0562,5.994
1586984880000,1.0562,1.0505,1.0562,1.0505,47.0
1587327300000,1.08906554,1.08906554,1.08906554,1.08906554,2.0
1587358800000,1.0893,1.0893,1.0893,1.0893,345.30386739999994
1587358920000,1.0993,1.1049,1.1049,1.0993,377.686671
1587411300000,1.0999,1.106,1.106,1.0999,2201.60504014
1587491280000,1.105,1.105,1.105,1.105,61.36
1587491460000,1.0511,1.0506,1.0511,1.0506,61.23728000000001
1587492420000,1.105,1.105,1.105,1.105,58.227
1587532560000,1.0512,1.05,1.0512,1.05,2197.20183
1587581700000,1.0532,1.0532,1.0532,1.0532,58.109196
1587925740000,1.0551,1.0551,1.0551,1.0551,2.43757195
1587996540000,1.0997,1.1061,1.1061,1.0997,1410.67984888
1588095960000,1.0552,1.0552,1.0552,1.0552,8.034325
1588204320000,1.0561,1.0561,1.0561,1.0561,108.0
1588441140000,1.0952,1.0628,1.0952,1.0628,791.22446483
1588483320000,1.0952,1.1028,1.1028,1.0952,50.0
1588483380000,1.0631,1.0631,1.0631,1.0631,49.0
1588671000000,1.1028,1.1028,1.1028,1.1028,2.0
1588700400000,1.0631,1.0631,1.0631,1.0631,79.0
1588847640000,1.0631,1.0631,1.0631,1.0631,2.0
1588899900000,1.1027,1.1028,1.1028,1.1027,10.0
1588994520000,1.1028,1.11899036,1.11899036,1.1028,1831.840156
1588994640000,1.0633,1.0515,1.0633,1.0515,1249.61808122
1589168040000,1.0961,1.0961,1.0961,1.0961,7.00212748
1589189280000,1.089,1.089,1.089,1.089,7.0
1589193360000,1.065,1.065,1.065,1.065,14.002127
1589456280000,1.057,1.057,1.057,1.057,10.0
1590388140000,1.098,1.1,1.1,1.098,6257.4721017400025
1590584160000,1.09821345,1.09821345,1.09821345,1.09821345,93.62634
1591262400000,1.08738277,1.08738277,1.08738277,1.08738277,85.91
1591281960000,1.1,1.1,1.1,1.1,335.00089333
1591282260000,1.1,1.1,1.1,1.1,335.00089333
1591282560000,1.1,1.1,1.1,1.1,1090.91608333
1591282800000,1.1,1.1,1.1,1.1,310.0
1591283520000,1.1,1.1,1.1,1.1,2817.99773083
1591354620000,1.09108107,1.0601,1.09108107,1.0601,12.861196
1591481280000,1.0601,1.0601,1.0601,1.0601,7.316783
1591497600000,1.1178,1.0522,1.1178,1.0522,229.77483999999998
1591630020000,1.1168,1.1168,1.1168,1.1168,10.58
1592236800000,1.061,1.057,1.061,1.057,10.55
1593563520000,1.1099,1.1099,1.1099,1.1099,440.33118600000006
1593563580000,1.057,1.0522,1.057,1.0522,439.498459
1593564000000,1.1099,1.0522,1.1099,1.0522,824.034051
1594324380000,1.1088,1.11,1.11,1.1088,1370.02072
1594324440000,1.11396406,1.12,1.12,1.11396406,3629.97928
1594324500000,1.11999098,1.11999098,1.11999098,1.11999098,20.0
1594471560000,1.1194,1.1194,1.1194,1.1194,5.0
1594908240000,1.1056,1.0522,1.1056,1.0522,2661.5981089
1594910280000,1.1036,1.1036,1.1036,1.1036,30.0
1595086500000,1.1172,1.1172,1.1172,1.1172,56.12645799999999
1595086680000,1.103,1.103,1.1172,1.103,166.309228
1595273640000,1.1165,1.1165,1.1165,1.1165,275.270575
1595273700000,1.1045,1.1045,1.1045,1.1045,274.720034
1595412840000,1.116,1.116,1.116,1.116,257.47741897000003
1595622540000,1.116,1.116,1.116,1.116,26.19779503
1595623440000,1.1165,1.1165,1.1165,1.1165,136.82102690000002
1595820780000,1.1165,1.12,1.12,1.1165,750.0
1595946840000,1.12,1.12,1.12,1.12,2000.0
1595947320000,1.0878,1.0611,1.0878,1.0611,1996.0
1596086940000,1.11724681,1.11971678,1.11971678,1.11724681,4500.54377
1596091800000,1.12,1.12,1.12,1.12,1280.58702702
1596099720000,1.0861,1.086,1.0861,1.086,600.0
1596117420000,1.09052927,1.09052927,1.09052927,1.09052927,90.0
1596117600000,1.08946205,1.08946205,1.08946205,1.08946205,20.0
1596181620000,1.1188,1.1301,1.1301,1.1188,698.55920856
1596182280000,1.09829764,1.086,1.09829764,1.086,1400.0
1596194160000,1.09836133,1.09007628,1.09836133,1.09007628,600.0
1596200700000,1.128,1.13569749,1.13569749,1.128,900.0
1596200760000,1.1398,1.1398,1.1398,1.1398,857.66514552
1596200820000,1.1639,1.1639,1.1639,1.1639,20.0
1596260940000,1.12145657,1.1211,1.12145657,1.1211,595.74272774
1596261000000,1.11910057,1.105,1.11910057,1.105,1189.30049826
1596466680000,1.1529,1.1529,1.1529,1.1529,1295.22646185
1596466740000,1.105,1.09066751,1.105,1.09066751,1714.83
1596617580000,1.145,1.145,1.145,1.145,2.0
1596633180000,1.145,1.1649,1.1649,1.145,1020.961335
1596633240000,1.11301828,1.10471519,1.11301828,1.10471519,1982.211663
1596811920000,1.14821379,1.14821379,1.14821379,1.14821379,2.0
1597004640000,1.114,1.114,1.114,1.114,2.0
1597675500000,1.11260857,1.11260857,1.11260857,1.11260857,20.0799
1597681140000,1.14018592,1.14018592,1.14018592,1.14018592,87.701719
1597717920000,1.1421,1.1421,1.1421,1.1421,97.237692
1598201520000,1.111,1.111,1.111,1.111,282.40406
1598202660000,1.111,1.109,1.111,1.109,287.45394
1598203320000,1.109,1.10519133,1.109,1.10519133,280.70746
1598263680000,1.112,1.112,1.112,1.112,2.0
1598377500000,1.112,1.106,1.112,1.106,932.802165
1599899340000,1.11603441,1.10300216,1.11603441,1.10300216,757.3714110000003
1600144020000,1.137,1.137,1.137,1.137,5.864099
1600144200000,1.10735122,1.10735122,1.10735122,1.10735122,5.85237
1600708740000,1.1153,1.1153,1.1153,1.1153,49.93331177
1600797120000,1.125,1.159,1.159,1.125,1422.49911391
1600797360000,1.1799,1.19,1.19,1.1799,13296.42248723
1600797420000,1.1899,1.1899,1.1899,1.1899,600.0
1600797780000,1.1011,1.04776958,1.1011,1.04776958,11958.89705883
1600797840000,1.0341,1.025,1.0341,1.025,7783.1
1600800240000,1.061,1.025,1.061,1.025,10000.0
1600933740000,1.1358,1.18,1.18,1.1358,15761.32988285
1600934040000,1.07495506,1.05,1.07495506,1.05,19513.0
1600958280000,1.0728,1.0728,1.0728,1.0728,155.9566351
1601027100000,1.1186,1.169,1.169,1.1186,6165.3914975
1601027160000,1.1795,1.1795,1.1795,1.1795,19.0
1601027340000,1.1795,1.1795,1.1795,1.1795,31.0
1601027460000,1.0761,1.0401,1.0761,1.04,29004.0
1601086680000,1.0682,1.0682,1.0682,1.0682,240.0
1601087580000,1.0682,1.0682,1.0682,1.0682,49.85
1601554860000,1.08715453,1.08715453,1.08715453,1.08715453,4.0
1601556120000,1.09,1.1,1.1,1.09,43.0
1601556900000,1.09999941,1.09999941,1.09999941,1.09999941,2.0
1601556960000,1.09999941,1.09999941,1.09999941,1.09999941,6.0
1601557260000,1.09998883,1.09998883,1.09998883,1.09998883,2.0
1601557440000,1.09998883,1.09998883,1.09998883,1.09998883,2.002
1601558100000,1.09999824,1.09999824,1.09999824,1.09999824,2.0
1601558280000,1.09999824,1.09999824,1.09999824,1.09999824,2.0
1601558820000,1.09999824,1.09999824,1.09999824,1.09999824,2.0
1601559000000,1.09999824,1.09999824,1.09999824,1.09999824,2.0
1601560860000,1.09999003,1.09999003,1.09999003,1.09999003,2.0
1601564580000,1.09980107,1.09980107,1.09980107,1.09980107,2.0
1601564760000,1.09980107,1.09980107,1.09980107,1.09980107,2.0
1601565840000,1.09999002,1.09999002,1.09999002,1.09999002,2.0
1601566740000,1.09998884,1.09998884,1.09998884,1.09998884,2.0
1601568000000,1.09995476,1.09995476,1.09995476,1.09995476,2.0
1601576940000,1.09882357,1.09882357,1.09882357,1.09882357,2.0
1601579580000,1.09999261,1.09999261,1.09999261,1.09999261,2.0
1601584260000,1.09985387,1.09985387,1.09985387,1.09985387,2.0
1601599920000,1.09882114,1.09882114,1.09882114,1.09882114,2.0
1601605500000,1.09999237,1.09999237,1.09999237,1.09999237,2.0
1601713500000,1.09999683,1.09999683,1.09999683,1.09999683,2.5
1601718420000,1.09999683,1.09999683,1.09999683,1.09999683,2.5
1601864400000,1.09688999,1.09688999,1.09688999,1.09688999,2.952272
1601908980000,1.1394,1.1394,1.1394,1.1394,2.0
1601918700000,1.135,1.135,1.135,1.135,2.0
1602007020000,1.1387,1.1387,1.1387,1.1387,21.030046
1602055320000,1.08746128,1.08746128,1.08746128,1.08746128,491.0
1602102780000,1.11,1.11,1.11,1.11,2.0
1602530880000,1.1588,1.1588,1.1588,1.1588,2.0
1602539760000,1.1454,1.1454,1.1454,1.1454,2.0
1602549720000,1.145,1.145,1.145,1.145,2.0
1602571440000,1.1425,1.1302,1.1425,1.1302,76.002
1602576360000,1.1302,1.13,1.1302,1.13,47.99800000000001
1602576420000,1.12883175,1.12883175,1.12883175,1.12883175,269.114309
1602578100000,1.14,1.14,1.14,1.14,2.0
1602578940000,1.135,1.135,1.135,1.135,2.0
1602688860000,1.105,1.105,1.105,1.105,2.0
1602875700000,1.078,1.07795867,1.078,1.07795867,908.60300608
1602881220000,1.071,1.071,1.071,1.071,1000.0
1603025460000,1.0685,1.0412,1.0685,1.0412,6525.12699392
1603174320000,1.0412,1.0412,1.0412,1.0412,119.88
1603768140000,1.1041,1.1041,1.1041,1.1041,2.0
1603876260000,1.0911,1.0911,1.0911,1.0911,2.0
1603893420000,1.0911,1.0911,1.0911,1.0911,44.82262100000001
1603893540000,1.0624,1.0624,1.0624,1.0624,44.82262100000001
1603915740000,1.0911,1.1156,1.1156,1.0911,2000.0
1603915860000,1.0624,1.0624,1.0624,1.0624,1079.86518468
1604259360000,1.10792575,1.1156,1.1156,1.10792575,90.03221690999996
1604259420000,1.1157,1.1468,1.1468,1.1157,75.0
1604566080000,1.06619484,1.06619484,1.06619484,1.06619484,2.0
1604686560000,1.1458,1.1458,1.1458,1.1458,3.0
1604765700000,1.1458,1.1458,1.1458,1.1458,630.856452
1604780880000,1.1458,1.1458,1.1458,1.1458,2.0
1604925300000,1.0747,1.0747,1.0747,1.0747,627.722089
1604939460000,1.161,1.161,1.161,1.161,48.0
1604939520000,1.0768,1.0768,1.0768,1.0768,1824.741205
1605709140000,1.16399776,1.16399776,1.16399776,1.16399776,2.0
1605709200000,1.16399776,1.16399776,1.16399776,1.16399776,15.149484
1606148400000,1.0777,1.0777,1.0777,1.0777,7.11
1606330380000,1.08669699,1.0777,1.08669699,1.0777,21.16882393
1606582680000,1.11999885,1.11999885,1.11999885,1.11999885,126.77
1606582920000,1.0777,1.0777,1.0777,1.0777,126.51646
1606582920000,1.0777,1.0777,1.0777,1.0777,126.51646
1606963080000,1.1199,1.164,1.164,1.1199,2176.88805842
1607062140000,1.1875,1.19,1.19,1.1875,6100.0
1607062620000,1.19,1.19,1.19,1.19,608.0
1607062740000,1.19,1.19,1.19,1.19,3.949
1607062860000,1.19,1.19,1.19,1.19,30.0
1607065440000,1.189,1.189,1.189,1.189,181.13
1607065560000,1.0777,1.04,1.0777,1.04,7016.611732920002
1607272860000,1.0527,1.0527,1.0527,1.0527,12.987
1607348400000,1.1129,1.1129,1.1129,1.1129,10.810535
1607348460000,1.0590000000000002,1.0590000000000002,1.0590000000000002,1.0590000000000002,10.810535
1607484060000,1.1028,1.1028,1.1028,1.1028,2.0
1607496780000,1.1362,1.1362,1.1362,1.1362,2.0
1607516340000,1.0604,1.0604,1.0604,1.0604,10.510892
1607516580000,1.06041568,1.0604,1.06041568,1.0604,9.598562
1607634120000,1.12409149,1.12409149,1.12409149,1.12409149,105.0
1607634240000,1.12399434,1.12399434,1.12399434,1.12399434,100.0
1607634300000,1.12389719,1.12389719,1.12389719,1.12389719,50.0
1607634360000,1.1238,1.1238,1.1238,1.1238,10.0
1607634420000,1.1237879,1.1237879,1.1237879,1.1237879,10.0
1607634480000,1.1237,1.1237,1.1237,1.1237,30.0
1607634540000,1.12,1.12,1.12,1.12,38.64501705
1607634540000,1.12,1.12,1.12,1.12,38.64501705
1607634540000,1.12,1.12,1.12,1.12,38.64501705
1607634540000,1.12,1.12,1.12,1.12,38.64501705
1607634540000,1.12,1.12,1.12,1.12,38.64501705
1607634540000,1.12,1.12,1.12,1.12,38.64501705
1607634540000,1.12,1.12,1.12,1.12,38.64501705
